<?xml version="1.0" encoding="UTF-8" standalone="no"?>
<!-- Created with Inkscape (http://www.inkscape.org/) -->

<svg
   xmlns:dc="http://purl.org/dc/elements/1.1/"
   xmlns:cc="http://creativecommons.org/ns#"
   xmlns:rdf="http://www.w3.org/1999/02/22-rdf-syntax-ns#"
   xmlns:svg="http://www.w3.org/2000/svg"
   xmlns="http://www.w3.org/2000/svg"
   xmlns:xlink="http://www.w3.org/1999/xlink"
   xmlns:sodipodi="http://sodipodi.sourceforge.net/DTD/sodipodi-0.dtd"
   xmlns:inkscape="http://www.inkscape.org/namespaces/inkscape"
   id="svg2"
   version="1.1"
   inkscape:version="0.48.5 r10040"
   width="2481"
   height="3503"
   sodipodi:docname="Pepper-and-Carrot_by-David-Revoy_E23P06.svg">
  <metadata
     id="metadata8">
    <rdf:RDF>
      <cc:Work
         rdf:about="">
        <dc:format>image/svg+xml</dc:format>
        <dc:type
           rdf:resource="http://purl.org/dc/dcmitype/StillImage" />
        <dc:title />
      </cc:Work>
    </rdf:RDF>
  </metadata>
  <defs
     id="defs6" />
  <sodipodi:namedview
     pagecolor="#ffffff"
     bordercolor="#666666"
     borderopacity="1"
     objecttolerance="10"
     gridtolerance="10"
     guidetolerance="10"
     inkscape:pageopacity="0"
     inkscape:pageshadow="2"
     inkscape:window-width="1292"
     inkscape:window-height="745"
     id="namedview4"
     showgrid="false"
     inkscape:zoom="0.43942712"
     inkscape:cx="1171.4096"
     inkscape:cy="2407.3681"
     inkscape:window-x="66"
     inkscape:window-y="-8"
     inkscape:window-maximized="1"
     inkscape:current-layer="layer1"
     inkscape:document-rotation="0" />
  <g
     inkscape:groupmode="layer"
     id="layer2"
     inkscape:label="artwork"
     sodipodi:insensitive="true"
     style="display:inline">
    <image
       sodipodi:absref="C:\Users\Gwen\Documents\Academie_du_Gallo\Traduction_BD\peppercarrot_ep23_translation-master\go\../gfx_Pepper-and-Carrot_by-David-Revoy_E23P06.png"
       xlink:href="../gfx_Pepper-and-Carrot_by-David-Revoy_E23P06.png"
       width="2481"
       height="3503"
       id="image10"
       x="0"
       y="0" />
  </g>
  <g
     inkscape:groupmode="layer"
     id="layer3"
     inkscape:label="speechbubbles"
     style="display:inline">
    <path
       style="fill:#ffffff;fill-rule:evenodd;stroke:none"
       d="m 167.02404,2081.3114 c 5.39685,-58.4563 33.73029,-95.1613 62.06374,-99.2397 28.33343,-4.0783 304.9218,0 331.90604,9.5161 26.98424,9.5161 66.11138,48.9401 64.76216,78.848 -1.34923,29.9078 3.74867,74.9097 -37.77792,110.1152 -29.51867,25.0253 -199.68331,19.0323 -228.01677,19.0323 -28.33344,0 -106.41557,13.2272 -151.11169,-20.3917 -45.10857,-33.9291 -41.82556,-97.8802 -41.82556,-97.8802 z"
       id="path4272"
       inkscape:connector-curvature="0"
       sodipodi:nodetypes="cssssssc" />
    <path
       style="fill:#ffffff;fill-rule:evenodd;stroke:none"
       d="m 1389.0142,2086.9463 c -6.1572,60.8814 -53.0676,96.5557 -90.6332,101.3173 -37.5656,4.7615 -414.94567,8.6177 -450.95433,-0.7811 -36.00851,-9.3986 -108.48334,-51.1781 -107.20866,-82.3007 1.27476,-31.1227 1.98214,-76.3154 56.53389,-113.685 38.77747,-26.5638 276.4766,-23.4604 314.1127,-23.9814 37.6361,-0.5208 164.2479,-0.6491 224.2009,33.4859 60.506,34.4498 53.9487,85.945 53.9487,85.945 z"
       id="path4272-6"
       inkscape:connector-curvature="0"
       sodipodi:nodetypes="cssssssc" />
    <path
       style="fill:#ffffff;fill-rule:evenodd;stroke:none;stroke-width:1px;stroke-linecap:butt;stroke-linejoin:miter;stroke-opacity:1"
       d="m 1174.8502,2374.625 c 53.2945,-58.4181 71.3886,-137.4736 64.8491,-196.709 -6.4438,-58.3689 -35.667,-20.5356 -35.667,-20.5356 0,0 -7.6853,2.1941 0,30.2629 7.8496,28.6688 31.1185,75.2067 -29.1821,186.9817 z"
       id="path4289"
       inkscape:connector-curvature="0"
       sodipodi:nodetypes="cscsc" />
    <path
       style="fill:#ffffff;fill-rule:evenodd;stroke:none;stroke-width:1px;stroke-linecap:butt;stroke-linejoin:miter;stroke-opacity:1"
       d="m 1875.5992,2053.7299 c 17.4012,-41.0171 52.2035,-79.5483 84.52,-91.9777 32.3165,-12.4295 110.6218,-4.9718 130.5089,-8.7006 19.8871,-3.7289 104.4071,-3.7289 129.266,0 24.8588,3.7288 90.7347,21.13 108.1359,41.017 17.4012,19.8871 45.9888,60.9042 39.7741,90.7348 -6.2147,29.8306 4.9718,42.26 -17.4011,65.8759 -22.373,23.6159 -74.5766,60.9042 -120.5654,67.1189 -45.9888,6.2147 -176.4977,9.9435 -211.3001,6.2147 -34.8024,-3.7288 -101.9212,-23.6159 -116.8365,-44.7459 -14.9153,-21.13 -41.0171,-65.8759 -26.1018,-125.5371 z"
       id="path4291"
       inkscape:connector-curvature="0" />
    <path
       style="fill:#ffffff;fill-rule:evenodd;stroke:none;stroke-width:1px;stroke-linecap:butt;stroke-linejoin:miter;stroke-opacity:1"
       d="m 2059.5546,2373.1659 c 94.4635,-48.4747 132.9947,-119.3224 130.5089,-160.3395 -2.4859,-41.0171 -23.6159,-53.4465 -28.5877,-22.3729 -4.9718,31.0735 19.8871,90.7347 -101.9212,182.7124 z"
       id="path4293"
       inkscape:connector-curvature="0" />
  </g>
  <g
     inkscape:groupmode="layer"
     id="layer1"
     inkscape:label="txt"
     style="display:inline">
    <text
       xml:space="preserve"
       style="font-style:normal;font-variant:normal;font-weight:normal;font-stretch:normal;line-height:0%;font-family:Lavi;-inkscape-font-specification:Lavi;text-align:center;letter-spacing:0px;word-spacing:0px;text-anchor:middle;fill:#000000;fill-opacity:1;stroke:#000000;stroke-width:0.41015574;stroke-miterlimit:4;stroke-dasharray:none;stroke-opacity:1"
       x="1954.752"
       y="1501.1776"
       id="text4246-8"
       transform="matrix(0.76133526,-0.51280204,0.4098681,1.0374126,0,0)"><tspan
         sodipodi:role="line"
         style="font-size:41.48361969px;line-height:1.25;fill:#000000;stroke:#000000;stroke-width:0.41015574;stroke-miterlimit:4;stroke-dasharray:none;stroke-opacity:1"
         x="1954.752"
         y="1501.1776"
         id="tspan4150-8">Piou !</tspan></text>
    <text
       xml:space="preserve"
       style="font-style:normal;font-variant:normal;font-weight:normal;font-stretch:normal;line-height:0%;font-family:Lavi;-inkscape-font-specification:Lavi;text-align:center;letter-spacing:0px;word-spacing:0px;text-anchor:middle;fill:#000000;fill-opacity:1;stroke:#000000;stroke-width:0.41015574;stroke-miterlimit:4;stroke-dasharray:none;stroke-opacity:1"
       x="2086.8733"
       y="1374.3584"
       id="text4246-8-3"
       transform="matrix(0.8070703,-0.42305912,0.27884184,1.092883,0,0)"><tspan
         sodipodi:role="line"
         style="font-size:38.3127861px;line-height:1.25;fill:#000000;stroke:#000000;stroke-width:0.41015574;stroke-miterlimit:4;stroke-dasharray:none;stroke-opacity:1"
         x="2086.8733"
         y="1374.3584"
         id="tspan4150-8-6">Piou !</tspan></text>
    <text
       xml:space="preserve"
       style="font-style:normal;font-variant:normal;font-weight:normal;font-stretch:normal;line-height:0%;font-family:Lavi;-inkscape-font-specification:Lavi;text-align:center;letter-spacing:0px;word-spacing:0px;text-anchor:middle;fill:#000000;fill-opacity:1;stroke:#000000;stroke-width:0.41015574;stroke-miterlimit:4;stroke-dasharray:none;stroke-opacity:1"
       x="2137.4421"
       y="1412.3752"
       id="text4246-8-3-7"
       transform="matrix(0.8070703,-0.42305912,0.27884184,1.092883,0,0)"><tspan
         sodipodi:role="line"
         style="font-size:38.3127861px;line-height:1.25;fill:#000000;stroke:#000000;stroke-width:0.41015574;stroke-miterlimit:4;stroke-dasharray:none;stroke-opacity:1"
         x="2137.4421"
         y="1412.3752"
         id="tspan4150-8-6-5">Piou !</tspan></text>
    <text
       xml:space="preserve"
       style="font-style:normal;font-variant:normal;font-weight:normal;font-stretch:normal;line-height:0%;font-family:Lavi;-inkscape-font-specification:Lavi;text-align:center;letter-spacing:0px;word-spacing:0px;text-anchor:middle;fill:#000000;fill-opacity:1;stroke:#000000;stroke-width:0.41015574;stroke-miterlimit:4;stroke-dasharray:none;stroke-opacity:1"
       x="1869.3112"
       y="1652.55"
       id="text4246-8-3-3"
       transform="matrix(0.73266151,-0.54180126,0.44311163,1.0372069,0,0)"><tspan
         sodipodi:role="line"
         style="font-size:38.3127861px;line-height:1.25;fill:#000000;stroke:#000000;stroke-width:0.41015574;stroke-miterlimit:4;stroke-dasharray:none;stroke-opacity:1"
         x="1869.3112"
         y="1652.55"
         id="tspan4150-8-6-56">Piou !</tspan></text>
    <text
       xml:space="preserve"
       style="font-style:normal;font-variant:normal;font-weight:normal;font-stretch:normal;text-align:center;line-height:0%;letter-spacing:0px;word-spacing:0px;text-anchor:middle;fill:#000000;fill-opacity:1;stroke:none;font-family:Lavi;-inkscape-font-specification:Lavi"
       x="390.71164"
       y="2048.1582"
       id="text4246"
       sodipodi:linespacing="0%"><tspan
         sodipodi:role="line"
         style="font-size:45px;line-height:1.25"
         x="398.6218"
         y="2048.1582"
         id="tspan4169">Tu vais Carote, </tspan><tspan
         sodipodi:role="line"
         style="font-size:45px;line-height:1.25"
         x="398.6218"
         y="2104.4082"
         id="tspan10441">c'ét ça, je sonje, </tspan><tspan
         sodipodi:role="line"
         style="font-size:45px;line-height:1.25"
         x="390.71164"
         y="2160.6582"
         id="tspan10443">grandir.</tspan></text>
    <text
       xml:space="preserve"
       style="font-size:12.39597225px;font-style:normal;font-variant:normal;font-weight:normal;font-stretch:normal;text-align:center;line-height:0%;letter-spacing:0px;word-spacing:0px;text-anchor:middle;fill:#000000;fill-opacity:1;stroke:none;font-family:Lavi;-inkscape-font-specification:Lavi"
       x="1031.3719"
       y="2106.9705"
       id="text4246-2"
       sodipodi:linespacing="0%"
       transform="scale(1.0329977,0.96805635)"><tspan
         sodipodi:role="line"
         style="font-size:46.48489761px;line-height:1.25"
         x="1039.5431"
         y="2106.9705"
         id="tspan4235">Se tourner dez falhiys </tspan><tspan
         sodipodi:role="line"
         style="font-size:46.48489761px;line-height:1.25"
         x="1039.5431"
         y="2165.0764"
         id="tspan10452">engheuzeriys, reterouer </tspan><tspan
         sodipodi:role="line"
         style="font-size:46.48489761px;line-height:1.25"
         x="1031.3719"
         y="2223.1826"
         id="tspan10456">le gout a crocher deden…</tspan></text>
    <text
       xml:space="preserve"
       style="font-style:normal;font-variant:normal;font-weight:normal;font-stretch:normal;text-align:center;line-height:0%;letter-spacing:0px;word-spacing:0px;text-anchor:middle;fill:#000000;fill-opacity:1;stroke:none;font-family:Lavi;-inkscape-font-specification:Lavi"
       x="2118.6797"
       y="2010.2068"
       id="text4246-2-7"
       sodipodi:linespacing="0%"><tspan
         sodipodi:role="line"
         style="font-size:45px;line-height:1.25"
         x="2126.5898"
         y="2010.2068"
         id="tspan4270">Ça sert de ren </tspan><tspan
         sodipodi:role="line"
         style="font-size:45px;line-height:1.25"
         x="2126.5898"
         y="2066.4568"
         id="tspan10467">de prendr une jalouziy </tspan><tspan
         sodipodi:role="line"
         style="font-size:45px;line-height:1.25"
         x="2118.6797"
         y="2122.7068"
         id="tspan10471">sus lez ciuns q'ont</tspan><tspan
         sodipodi:role="line"
         style="font-size:45px;line-height:1.25"
         x="2118.6797"
         y="2178.9568"
         id="tspan10475"> la voge !</tspan></text>
  </g>
</svg>
