<?xml version="1.0" encoding="UTF-8" standalone="no"?>
<!-- Created with Inkscape (http://www.inkscape.org/) -->

<svg
   xmlns:dc="http://purl.org/dc/elements/1.1/"
   xmlns:cc="http://creativecommons.org/ns#"
   xmlns:rdf="http://www.w3.org/1999/02/22-rdf-syntax-ns#"
   xmlns:svg="http://www.w3.org/2000/svg"
   xmlns="http://www.w3.org/2000/svg"
   xmlns:xlink="http://www.w3.org/1999/xlink"
   xmlns:sodipodi="http://sodipodi.sourceforge.net/DTD/sodipodi-0.dtd"
   xmlns:inkscape="http://www.inkscape.org/namespaces/inkscape"
   id="svg2"
   version="1.1"
   inkscape:version="0.92.2 2405546, 2018-03-11"
   width="2481"
   height="3503"
   sodipodi:docname="E16P03.svg">
  <metadata
     id="metadata8">
    <rdf:RDF>
      <cc:Work
         rdf:about="">
        <dc:format>image/svg+xml</dc:format>
        <dc:type
           rdf:resource="http://purl.org/dc/dcmitype/StillImage" />
        <dc:title></dc:title>
      </cc:Work>
    </rdf:RDF>
  </metadata>
  <defs
     id="defs6">
    <filter
       style="color-interpolation-filters:sRGB"
       id="filter4375-4-1-1-1"
       inkscape:label="deevad outline effect">
      <feFlood
         id="feFlood4377-7-9-0-8"
         flood-opacity="1"
         flood-color="rgb(0,0,0)"
         result="flood" />
      <feComposite
         id="feComposite4379-3-8-8-2"
         in2="SourceGraphic"
         in="flood"
         operator="in"
         result="composite1" />
      <feMorphology
         id="feMorphology4393-1-0-49-8"
         operator="dilate"
         radius="4"
         result="result3" />
      <feComposite
         id="feComposite4385-9-5-7-0"
         in2="result3"
         in="SourceGraphic"
         operator="over"
         result="composite2" />
    </filter>
    <filter
       style="color-interpolation-filters:sRGB"
       id="filter4375-4-1-1-1-8"
       inkscape:label="deevad outline effect">
      <feFlood
         id="feFlood4377-7-9-0-8-4"
         flood-opacity="1"
         flood-color="rgb(0,0,0)"
         result="flood" />
      <feComposite
         id="feComposite4379-3-8-8-2-5"
         in2="SourceGraphic"
         in="flood"
         operator="in"
         result="composite1" />
      <feMorphology
         id="feMorphology4393-1-0-49-8-1"
         operator="dilate"
         radius="4"
         result="result3" />
      <feComposite
         id="feComposite4385-9-5-7-0-7"
         in2="result3"
         in="SourceGraphic"
         operator="over"
         result="composite2" />
    </filter>
  </defs>
  <sodipodi:namedview
     pagecolor="#ffffff"
     bordercolor="#666666"
     borderopacity="1"
     objecttolerance="10"
     gridtolerance="10"
     guidetolerance="10"
     inkscape:pageopacity="0"
     inkscape:pageshadow="2"
     inkscape:window-width="1920"
     inkscape:window-height="1033"
     id="namedview4"
     showgrid="false"
     inkscape:zoom="0.60491497"
     inkscape:cx="1148.6415"
     inkscape:cy="830.10994"
     inkscape:window-x="0"
     inkscape:window-y="47"
     inkscape:window-maximized="0"
     inkscape:current-layer="layer3" />
  <g
     inkscape:groupmode="layer"
     id="layer2"
     inkscape:label="artwork"
     sodipodi:insensitive="true">
    <image
       sodipodi:absref="/home/midgard/git/peppercarrot/comics/ep16_The-Sage-of-the-Mountain/lang/ca/../gfx_Pepper-and-Carrot_by-David-Revoy_E16P03.png"
       xlink:href="../gfx_Pepper-and-Carrot_by-David-Revoy_E16P03.png"
       width="2481"
       height="3503"
       id="image10"
       x="0"
       y="0" />
  </g>
  <g
     inkscape:groupmode="layer"
     id="layer3"
     inkscape:label="speechbubbles">
    <path
       style="color:#000000;display:inline;overflow:visible;visibility:visible;fill:#ffffff;fill-opacity:1;fill-rule:nonzero;stroke:none;stroke-width:1px;marker:none;enable-background:accumulate"
       d="m 1530.5664,614.12504 c -23.5422,-44.79099 -54.1129,-86.36208 -69.4889,-134.89415 l -9.2637,44.46765 c -14.5297,-14.22937 -19.1139,-35.6541 -27.0752,-54.63573 l -11.338,37.30803 c -33.8829,-34.01763 -74.8115,-85.94086 -98.9326,-124.1838 l -58.8695,-5.7337 c 28.9026,35.70192 134.8788,118.42738 157.7121,160.07431 l 12.6468,-24.8312 c 9.8817,13.23086 19.2558,26.89199 26.3633,42.47502 L 1465.44,521.55 Z"
       id="path4032"
       inkscape:connector-curvature="0"
       sodipodi:nodetypes="cccccccccccc" />
    <path
       style="color:#000000;display:inline;overflow:visible;visibility:visible;fill:#ffffff;fill-opacity:1;fill-rule:nonzero;stroke:none;stroke-width:1px;marker:none;enable-background:accumulate"
       d="m 977.30316,231.99194 -38.37788,-8.17075 3.39857,13.3562 c -22.8547,0.72472 -34.76242,-3.4672 -50.97858,-5.72409 l 25.48924,17.17216 -4.24819,4.77008 c 4.13831,2.78907 10.38258,4.69135 11.89493,8.58611 -11.54528,2.4271 -19.84614,2.4255 -29.39417,3.35745 8.98404,3.22554 16.46371,6.95775 21.74743,11.42971 l -30.58711,7.63205 28.03632,6.67702 c -21.08805,10.9796 -47.593,17.90425 -72.21782,26.23641 l 87.51326,-3.8161 -13.59421,8.5861 c 8.7469,4.46886 7.97391,2.25684 11.89497,3.33909 1.9095,3.21602 -30.08456,16.58779 -27.1886,15.26419 3.39864,-0.47705 32.28643,-2.38508 32.28643,-2.38508 0,0 -25.4893,13.35619 -22.09066,13.35619 3.39848,0 31.43676,-3.33907 31.43676,-3.33907 l -9.3461,12.87916 36.53472,-7.15508 -15.29365,16.01395 c 9.5054,-0.9421 15.63831,-1.27097 12.25886,4.29736 0.31978,7.39629 -0.0716,10.74127 -3.10604,21.19606 13.64577,-2.92319 16.6276,-1.96271 27.38192,-2.86994 44.22954,-27.76555 34.12294,-9.23758 28.03814,10.97113 l 33.9859,-16.69521 5.9476,11.44814 25.4892,-14.31017 v 14.78722 c 13.1671,-2.85967 20.7238,-11.86674 33.1361,-17.17224 l 2.5488,55.33265 44.3482,-51.98855 8.8692,27.04584 21.5516,-20.3728 2.5489,15.26418 23.79,-20.51122 17.8425,18.60318 16.993,-17.17216 c 27.4544,17.41271 42.7597,33.16896 63.7232,46.74652 -3.5863,-19.25585 -6.5789,-37.9564 -5.0979,-52.47059 9.6293,-1.51249 19.2584,1.51267 28.8878,5.72407 l -5.0978,-12.87917 35.685,8.58611 -16.1432,-20.03426 c 54.472,-0.64189 43.5367,2.7963 56.0766,4.77008 l -10.1956,-12.87917 37.3845,10.01713 c -10.213,-10.65789 -23.6271,-22.21448 -30.5875,-31.95937 l 39.0836,2.38501 c -15.3155,-8.57415 -34.5579,-14.94373 -45.2729,-26.10057 l 34.2276,-1.08872 -32.2864,-14.31018 25.4892,-8.10908 -20.3914,-1.90806 33.9858,-17.17215 -45.0313,-1.43102 54.3773,-31.00539 -62.8737,6.67815 5.0978,-22.41929 -34.8352,16.21817 34.8352,-56.28662 c -28.3881,19.88226 -54.7415,31.18619 -87.995,50.76468 l -12.2688,-5.65235 -13.5885,2.9272 3.3987,-16.08015 -50.1289,19.55716 5.0978,-9.06308 -15.2936,8.58612 3.3984,-11.92518 -26.3389,14.31018 2.4251,-12.46842 -12.6208,8.17537 -3.8863,-7.83419 -14.8058,4.97216 c -14.2463,-19.17252 -27.4047,-53.0244 -27.4047,-53.0244 0,0 -15.5247,24.09885 -32.9202,53.97844 l -9.3461,-9.05986 -11.6529,8.37751 -11.7712,-10.82888 -17.7227,12.9401 c -14.0148,-9.85812 -22.1773,-15.89805 -27.6743,-25.75619 2.711,9.23914 4.682,15.44567 0.7276,25.62028 -51.73606,-15.5776 -50.18723,-16.96675 -69.54878,-25.62028 -5.30545,11.12263 13.34154,21.56569 10.33964,30.11301 z"
       id="path4024"
       inkscape:connector-curvature="0"
       sodipodi:nodetypes="cccccccccccccccccsccccccccccccccccccccccccccccccccccccccccccccccccccccccccccccccccccc" />
    <path
       inkscape:connector-curvature="0"
       style="fill:#ffffff;fill-rule:evenodd;stroke:none;stroke-width:0.99999994"
       d="m 534.57551,1199.0507 c -151.78304,-0.1258 -303.88168,1.1314 -315.21817,2.641 -12.82847,1.7081 -34.52733,13.4061 -55.51591,27.7978 l -12.50335,-0.6247 7.86185,3.8649 c -0.87137,0.6171 -1.74106,1.2358 -2.60676,1.8598 l -41.78339,-8.7452 30.05792,17.5504 c -8.99616,7.039 -17.22833,14.1698 -23.75972,20.6927 4.55657,34.8451 8.10541,56.2509 20.20486,73.3865 l -7.60849,12.1561 19.46658,0.9711 c 0.12707,0.113 0.25969,0.2255 0.38794,0.3383 l -13.55634,13.7867 23.60138,-5.9555 c 0.0516,0.036 0.0987,0.071 0.15044,0.1075 l -30.05,32.0139 32.74978,-9.0583 -39.04797,29.1847 74.73902,-30.7882 c 1.11747,0.5341 2.20482,1.061 3.35693,1.6035 0.65739,0.3096 1.35672,0.6129 2.07828,0.9124 l -0.81943,9.1517 17.36454,-4.2224 c 90.57839,20.189 376.76866,8.5724 506.01449,-0.7654 l 25.81228,22.0969 -5.03935,-16.1018 37.78914,24.1527 -18.89457,-32.2052 20.15342,11.0714 -7.55704,-12.0772 20.15341,6.0378 -2.27424,-10.2949 c 57.65349,-10.4912 88.66279,-33.7358 98.00393,-56.1255 10.07688,-24.1532 5.0389,-57.3643 2.51967,-69.4408 -1.28432,-6.1567 -9.7823,-16.7557 -20.46416,-26.7384 l 14.16596,-12.5104 -22.00209,5.625 c -8.30444,-6.8314 -17.14334,-12.7091 -24.60291,-15.6891 -10.07688,-4.0255 -161.54488,-5.534 -313.32793,-5.6598 z"
       id="path4212" />
    <path
       style="fill:#ffffff;fill-rule:evenodd;stroke:none;stroke-width:1px;stroke-linecap:butt;stroke-linejoin:miter;stroke-opacity:1"
       d="m 859.93893,1272.3203 c 56.86661,-10.0335 105.79244,-10.5381 175.55377,-36.0453 l -19.7842,24.3214 30.6717,-8.1632 -12.4294,26.1018 c 0,0 202.5995,-33.5594 193.8989,-33.5594 -8.7006,0 -224.9071,61.577 -224.9071,61.577 l 17.0647,-28.9567 -42.99824,16.0553 22.13933,-23.8168 -161.58242,57.1754 z"
       id="path4230"
       inkscape:connector-curvature="0"
       sodipodi:nodetypes="cccccscccccc" />
    <path
       style="fill:#ffffff;fill-rule:evenodd;stroke:none"
       d="m 798.10186,1823.7856 -40.08519,29.8306 -13.36171,14.9153 11.30607,13.6724 -15.41738,0 4.11131,23.6159 -38.02954,2.4859 35.97389,18.6441 -27.75128,2.4859 27.75128,18.6441 -2.05566,9.9435 -11.30607,11.1865 11.30607,44.7459 38.02953,22.373 -16.4452,8.7006 30.83475,1.2429 17.47304,22.373 35.97387,12.4294 27.75128,4.9717 -24.66781,16.1583 44.19649,-9.9435 -19.52868,18.6441 43.16866,-13.6724 68.86425,1.243 109.97737,-4.9718 37.0017,-4.9718 28.7791,14.9153 -6.167,-11.1864 27.7514,-1.243 74.0033,21.13 22.6122,6.2147 -14.3896,-32.3165 20.5565,13.6724 -5.1391,-27.3447 35.9739,-4.9718 18.5008,-13.6723 50.3634,29.8306 -19.5286,-29.8306 27.7512,18.6441 -18.5008,-26.1018 24.6678,11.1865 -18.5009,-24.8589 26.7235,-2.4858 3.0834,-39.7742 c 0,0 -15.4173,-11.1865 -11.306,-11.1865 4.1112,0 22.6122,-11.1864 22.6122,-11.1864 l -14.3896,-8.7006 24.6678,-4.9718 -27.7513,-17.4012 12.3339,-14.9153 -16.4452,-34.8023 -4.1113,-26.1018 -22.6122,-16.1583 -35.9738,-38.5312 -26.7235,-8.7006 -333.01533,-9.9435 -101.75468,9.9435 z"
       id="path4294"
       inkscape:connector-curvature="0" />
    <path
       style="fill:#ffffff;fill-rule:evenodd;stroke:none;stroke-width:1px;stroke-linecap:butt;stroke-linejoin:miter;stroke-opacity:1"
       d="m 1462.9425,2214.0693 -101.9212,-93.2206 6.2147,28.5876 -91.9777,-82.0341 -62.1471,11.1865 178.9836,110.6218 -9.9435,-28.5877 z"
       id="path4305"
       inkscape:connector-curvature="0" />
    <path
       style="fill:#ffffff;fill-rule:evenodd;stroke:none;stroke-width:1px;stroke-linecap:butt;stroke-linejoin:miter;stroke-opacity:1"
       d="m 422.51878,2625.9484 c -14.35862,14.0495 -15.62916,51.2796 -15.00801,64.6324 0.62116,13.3527 14.95155,63.2387 27.14244,67.1321 12.19087,3.8935 93.84089,16.4505 107.32269,15.8234 13.48181,-0.6272 89.60264,-10.1156 101.37943,-15.1239 11.77678,-5.0085 21.62108,-51.5585 21.13795,-61.9441 -0.48311,-10.3853 -5.89465,-62.1732 -21.15051,-67.4109 -15.25585,-5.2377 -80.84221,-27.463 -94.255,-25.3521 -13.41279,2.1107 -122.97226,2.7468 -126.56899,22.2431 z"
       id="path4408"
       inkscape:connector-curvature="0" />
    <path
       style="fill:#ffffff;fill-rule:evenodd;stroke:none;stroke-width:1px;stroke-linecap:butt;stroke-linejoin:miter;stroke-opacity:1"
       d="m 809.71773,2700.9124 c 12.34102,-21.3692 31.53816,-29.5882 46.62163,-29.5882 15.08348,0 242.70684,-4.9314 250.93414,-1.6438 8.2274,3.2876 46.6217,14.7941 46.6217,37.8072 0,23.0131 4.1137,49.3137 -6.8562,64.1078 -10.9698,14.7941 -111.0692,26.3007 -139.8649,23.0131 -28.79573,-3.2876 -153.57718,-8.219 -168.66066,-9.8628 -15.08347,-1.6437 -35.65184,-23.013 -32.90939,-39.4509 2.74245,-16.4379 4.11368,-44.3824 4.11368,-44.3824 z"
       id="path4410"
       inkscape:connector-curvature="0"
       sodipodi:nodetypes="csssssssc" />
    <path
       style="fill:#ffffff;fill-rule:evenodd;stroke:none;stroke-width:1px;stroke-linecap:butt;stroke-linejoin:miter;stroke-opacity:1"
       d="m 522.03985,2689.4104 c 193.55341,-0.3243 379.15326,41.3597 567.43005,79.9806 44.8357,122.0573 105.1467,166.4381 215.0829,188.0625 -136.5707,-22.4748 -165.0897,-59.102 -228.0528,-171.8502 -183.40766,-54.4054 -369.51017,-68.3491 -558.78343,-82.1423 z"
       id="path4412"
       inkscape:connector-curvature="0"
       sodipodi:nodetypes="cccccc" />
  </g>
  <g
     inkscape:groupmode="layer"
     id="layer1"
     inkscape:label="txt">
    <text
       xml:space="preserve"
       style="font-style:normal;font-variant:normal;font-weight:normal;font-stretch:normal;line-height:0%;font-family:Lavi;-inkscape-font-specification:Lavi;text-align:center;letter-spacing:0px;word-spacing:0px;text-anchor:middle;fill:#000000;fill-opacity:1;stroke:none"
       x="1160.7069"
       y="291.82645"
       id="text4246"><tspan
         sodipodi:role="line"
         style="font-size:45px;line-height:1.25"
         x="1160.7069"
         y="291.82645"
         id="tspan3537">Què vol dir que no</tspan><tspan
         sodipodi:role="line"
         style="font-size:45px;line-height:1.25"
         x="1160.7069"
         y="348.07645"
         id="tspan3045">aprens res?!</tspan></text>
    <text
       xml:space="preserve"
       style="font-style:normal;font-variant:normal;font-weight:normal;font-stretch:normal;line-height:0%;font-family:Lavi;-inkscape-font-specification:Lavi;text-align:center;letter-spacing:0px;word-spacing:0px;text-anchor:middle;fill:#000000;fill-opacity:1;stroke:none"
       x="508.79172"
       y="1283.0319"
       id="text4246-9"><tspan
         sodipodi:role="line"
         style="font-size:45px;line-height:1.25"
         x="508.79172"
         y="1283.0319"
         id="tspan3049">I ni tans sols tens el coratge per</tspan><tspan
         sodipodi:role="line"
         style="font-size:45px;line-height:1.25"
         x="508.79172"
         y="1339.2819"
         id="tspan877">venir i dir-nos-ho tu mateixa?!</tspan></text>
    <text
       xml:space="preserve"
       style="font-style:normal;font-variant:normal;font-weight:normal;font-stretch:normal;line-height:0%;font-family:Lavi;-inkscape-font-specification:Lavi;text-align:center;letter-spacing:0px;word-spacing:0px;text-anchor:middle;fill:#000000;fill-opacity:1;stroke:none"
       x="1079.519"
       y="1882.459"
       id="text4246-9-6"><tspan
         sodipodi:role="line"
         style="font-size:45px;line-height:1.25"
         x="1079.519"
         y="1882.459"
         id="tspan3053">Si la meva esquena estigués</tspan><tspan
         sodipodi:role="line"
         style="font-size:45px;line-height:1.25"
         x="1079.519"
         y="1938.709"
         id="tspan3055">millor, te n'ensenyaria una</tspan><tspan
         sodipodi:role="line"
         style="font-size:45px;line-height:1.25"
         x="1079.519"
         y="1994.959"
         id="tspan3059">de bona! I no sobre bruixeria,</tspan><tspan
         sodipodi:role="line"
         style="font-size:45px;line-height:1.25"
         x="1079.519"
         y="2051.209"
         id="tspan3077">no sé si entens!</tspan></text>
    <text
       xml:space="preserve"
       style="font-style:normal;font-variant:normal;font-weight:normal;font-stretch:normal;line-height:0%;font-family:Lavi;-inkscape-font-specification:Lavi;text-align:center;letter-spacing:0px;word-spacing:0px;text-anchor:middle;fill:#000000;fill-opacity:1;stroke:none"
       x="537.3103"
       y="2674.6978"
       id="text4246-9-6-3"><tspan
         sodipodi:role="line"
         style="font-size:45px;line-height:1.25"
         x="537.3103"
         y="2674.6978"
         id="tspan4292-8">Calma't</tspan><tspan
         sodipodi:role="line"
         style="font-size:45px;line-height:1.25"
         x="537.3103"
         y="2730.9478"
         id="tspan3079">Thyme,</tspan><tspan
         sodipodi:role="line"
         style="font-size:45px;line-height:1.25"
         x="545.22046"
         y="2787.1978"
         id="tspan4349"> </tspan></text>
    <text
       xml:space="preserve"
       style="font-style:normal;font-variant:normal;font-weight:normal;font-stretch:normal;line-height:0%;font-family:Lavi;-inkscape-font-specification:Lavi;text-align:center;letter-spacing:0px;word-spacing:0px;text-anchor:middle;fill:#000000;fill-opacity:1;stroke:none"
       x="982.7735"
       y="2744.8301"
       id="text4246-9-6-9"><tspan
         sodipodi:role="line"
         style="font-size:45px;line-height:1.25"
         x="982.7735"
         y="2744.8301"
         id="tspan4292-6">Tenen raó...</tspan></text>
    <text
       xml:space="preserve"
       style="font-style:normal;font-variant:normal;font-weight:normal;font-stretch:normal;line-height:0%;font-family:Lavi;-inkscape-font-specification:Lavi;text-align:center;letter-spacing:0px;word-spacing:0px;text-anchor:middle;fill:#ffffff;fill-opacity:1;stroke:#ffffff;stroke-width:0.41015577;stroke-miterlimit:4;stroke-dasharray:none;stroke-opacity:1"
       x="761.90906"
       y="920.14966"
       id="text4246-8"
       transform="matrix(0.89618363,-0.24886542,0.02679547,1.1084018,0,0)"><tspan
         sodipodi:role="line"
         style="font-size:30.7616806px;line-height:1.25;fill:#ffffff;stroke:#ffffff;stroke-width:0.41015577;stroke-miterlimit:4;stroke-dasharray:none;stroke-opacity:1"
         x="761.90906"
         y="920.14966"
         id="tspan4150-8">piou</tspan></text>
    <text
       xml:space="preserve"
       style="font-style:normal;font-variant:normal;font-weight:normal;font-stretch:normal;line-height:0%;font-family:Lavi;-inkscape-font-specification:Lavi;text-align:center;letter-spacing:0px;word-spacing:0px;text-anchor:middle;fill:#ffffff;fill-opacity:1;stroke:#ffffff;stroke-width:0.41015577;stroke-miterlimit:4;stroke-dasharray:none;stroke-opacity:1"
       x="543.87469"
       y="837.68304"
       id="text4246-8-4"
       transform="matrix(0.89618362,-0.24886542,0.02679547,1.1084018,0,0)"><tspan
         sodipodi:role="line"
         style="font-size:30.7616806px;line-height:1.25;fill:#ffffff;stroke:#ffffff;stroke-width:0.41015577;stroke-miterlimit:4;stroke-dasharray:none;stroke-opacity:1"
         x="543.87469"
         y="837.68304"
         id="tspan4150-8-7">piou</tspan></text>
    <text
       xml:space="preserve"
       style="font-style:normal;font-variant:normal;font-weight:normal;font-stretch:normal;line-height:0%;font-family:Lavi;-inkscape-font-specification:Lavi;text-align:center;letter-spacing:0px;word-spacing:0px;text-anchor:middle;fill:#ffffff;fill-opacity:1;stroke:#ffffff;stroke-width:0.41015577;stroke-miterlimit:4;stroke-dasharray:none;stroke-opacity:1"
       x="331.09775"
       y="939.14404"
       id="text4246-8-5"
       transform="matrix(0.89618362,-0.24886542,0.02679547,1.1084018,0,0)"><tspan
         sodipodi:role="line"
         style="font-size:30.7616806px;line-height:1.25;fill:#ffffff;stroke:#ffffff;stroke-width:0.41015577;stroke-miterlimit:4;stroke-dasharray:none;stroke-opacity:1"
         x="331.09775"
         y="939.14404"
         id="tspan4150-8-71">piou</tspan></text>
    <text
       xml:space="preserve"
       style="font-style:normal;font-variant:normal;font-weight:normal;font-stretch:normal;line-height:0%;font-family:Lavi;-inkscape-font-specification:Lavi;text-align:center;letter-spacing:0px;word-spacing:0px;text-anchor:middle;fill:#ffffff;fill-opacity:1;stroke:#ffffff;stroke-width:0.41015577;stroke-miterlimit:4;stroke-dasharray:none;stroke-opacity:1"
       x="85.560303"
       y="991.41766"
       id="text4246-8-7"
       transform="matrix(0.73686042,-0.56755246,0.44156597,1.0170015,0,0)"><tspan
         sodipodi:role="line"
         style="font-size:30.7616806px;line-height:1.25;fill:#ffffff;stroke:#ffffff;stroke-width:0.41015577;stroke-miterlimit:4;stroke-dasharray:none;stroke-opacity:1"
         x="85.560303"
         y="991.41766"
         id="tspan4150-8-79">piou</tspan></text>
    <text
       xml:space="preserve"
       style="font-style:normal;font-variant:normal;font-weight:normal;font-stretch:normal;line-height:0%;font-family:Lavi;-inkscape-font-specification:Lavi;text-align:center;letter-spacing:0px;word-spacing:0px;text-anchor:middle;fill:#ffffff;fill-opacity:1;stroke:#ffffff;stroke-width:0.41015577;stroke-miterlimit:4;stroke-dasharray:none;stroke-opacity:1"
       x="329.94168"
       y="1083.0319"
       id="text4246-8-9"
       transform="matrix(0.89618362,-0.24886542,0.02679547,1.1084018,0,0)"><tspan
         sodipodi:role="line"
         style="font-size:30.7616806px;line-height:1.25;fill:#ffffff;stroke:#ffffff;stroke-width:0.41015577;stroke-miterlimit:4;stroke-dasharray:none;stroke-opacity:1"
         x="329.94168"
         y="1083.0319"
         id="tspan4150-8-2">piou</tspan></text>
    <text
       xml:space="preserve"
       style="font-style:normal;font-variant:normal;font-weight:normal;font-stretch:normal;line-height:0%;font-family:Lavi;-inkscape-font-specification:Lavi;text-align:center;letter-spacing:0px;word-spacing:0px;text-anchor:middle;fill:#ffffff;fill-opacity:1;stroke:#ffffff;stroke-width:0.41015577;stroke-miterlimit:4;stroke-dasharray:none;stroke-opacity:1"
       x="550.73297"
       y="1011.4202"
       id="text4246-8-7-5"
       transform="matrix(0.89774282,-0.24318074,0.01977029,1.1085494,0,0)"><tspan
         sodipodi:role="line"
         style="font-size:30.7616806px;line-height:1.25;fill:#ffffff;stroke:#ffffff;stroke-width:0.41015577;stroke-miterlimit:4;stroke-dasharray:none;stroke-opacity:1"
         x="550.73297"
         y="1011.4202"
         id="tspan4150-8-79-8">piou</tspan></text>
    <text
       xml:space="preserve"
       style="font-style:normal;font-variant:normal;font-weight:normal;font-stretch:normal;line-height:0%;font-family:Lavi;-inkscape-font-specification:Lavi;text-align:center;letter-spacing:0px;word-spacing:0px;text-anchor:middle;fill:#ffffff;fill-opacity:1;stroke:#ffffff;stroke-width:0.41015577;stroke-miterlimit:4;stroke-dasharray:none;stroke-opacity:1"
       x="156.05554"
       y="847.95422"
       id="text4246-8-7-4"
       transform="matrix(0.73686042,-0.56755246,0.44156597,1.0170015,0,0)"><tspan
         sodipodi:role="line"
         style="font-size:30.7616806px;line-height:1.25;fill:#ffffff;stroke:#ffffff;stroke-width:0.41015577;stroke-miterlimit:4;stroke-dasharray:none;stroke-opacity:1"
         x="156.05554"
         y="847.95422"
         id="tspan4150-8-79-5">piou</tspan></text>
    <text
       xml:space="preserve"
       style="font-style:normal;font-variant:normal;font-weight:normal;font-stretch:normal;line-height:0%;font-family:Lavi;-inkscape-font-specification:Lavi;text-align:center;letter-spacing:0px;word-spacing:0px;text-anchor:middle;fill:#ffffff;fill-opacity:1;stroke:#ffffff;stroke-width:0.41015577;stroke-miterlimit:4;stroke-dasharray:none;stroke-opacity:1"
       x="351.84869"
       y="983.09503"
       id="text4246-8-7-6"
       transform="matrix(0.73686042,-0.56755246,0.44156597,1.0170015,0,0)"><tspan
         sodipodi:role="line"
         style="font-size:30.7616806px;line-height:1.25;fill:#ffffff;stroke:#ffffff;stroke-width:0.41015577;stroke-miterlimit:4;stroke-dasharray:none;stroke-opacity:1"
         x="351.84869"
         y="983.09503"
         id="tspan4150-8-79-86">piou</tspan></text>
    <text
       xml:space="preserve"
       style="font-style:normal;font-variant:normal;font-weight:normal;font-stretch:normal;line-height:0%;font-family:Lavi;-inkscape-font-specification:Lavi;text-align:center;letter-spacing:0px;word-spacing:0px;text-anchor:middle;fill:#ffffff;fill-opacity:1;stroke:#ffffff;stroke-width:0.41015577;stroke-miterlimit:4;stroke-dasharray:none;stroke-opacity:1"
       x="-99.220016"
       y="858.89972"
       id="text4246-8-7-3"
       transform="matrix(0.73686042,-0.56755246,0.44156597,1.0170015,0,0)"><tspan
         sodipodi:role="line"
         style="font-size:30.7616806px;line-height:1.25;fill:#ffffff;stroke:#ffffff;stroke-width:0.41015577;stroke-miterlimit:4;stroke-dasharray:none;stroke-opacity:1"
         x="-99.220016"
         y="858.89972"
         id="tspan4150-8-79-2">piou</tspan></text>
    <text
       xml:space="preserve"
       style="font-style:normal;font-variant:normal;font-weight:normal;font-stretch:normal;line-height:0%;font-family:Lavi;-inkscape-font-specification:Lavi;text-align:center;letter-spacing:0px;word-spacing:0px;text-anchor:middle;fill:#ffffff;fill-opacity:1;stroke:#ffffff;stroke-width:0.41015577;stroke-miterlimit:4;stroke-dasharray:none;stroke-opacity:1"
       x="-166.903"
       y="978.23053"
       id="text4246-8-7-3-4"
       transform="matrix(0.73686042,-0.56755246,0.44156597,1.0170015,0,0)"><tspan
         sodipodi:role="line"
         style="font-size:30.7616806px;line-height:1.25;fill:#ffffff;stroke:#ffffff;stroke-width:0.41015577;stroke-miterlimit:4;stroke-dasharray:none;stroke-opacity:1"
         x="-166.903"
         y="978.23053"
         id="tspan4150-8-79-2-4">piou</tspan></text>
    <text
       xml:space="preserve"
       style="font-style:normal;font-variant:normal;font-weight:normal;font-stretch:normal;line-height:0%;font-family:Lavi;-inkscape-font-specification:Lavi;letter-spacing:0px;word-spacing:0px;fill:#000000;fill-opacity:1;stroke:#000000;stroke-width:0.99236238;stroke-miterlimit:4;stroke-dasharray:none;stroke-opacity:1;filter:url(#filter4375-4-1-1-1)"
       x="787.65729"
       y="1584.5073"
       id="text4580"
       transform="matrix(1.031805,-0.51321442,-0.19048641,1.3599228,744.55089,-116.50742)"><tspan
         sodipodi:role="line"
         id="tspan4582"
         x="787.65729"
         y="1584.5073"
         style="font-size:70px;line-height:1.25;fill:#ffffff"><tspan
           style="font-size:80.40014648px"
           id="tspan4617">BAM!</tspan></tspan></text>
  </g>
</svg>
