<?xml version="1.0" encoding="UTF-8" standalone="no"?>
<!-- Created with Inkscape (http://www.inkscape.org/) -->

<svg
   xmlns:dc="http://purl.org/dc/elements/1.1/"
   xmlns:cc="http://creativecommons.org/ns#"
   xmlns:rdf="http://www.w3.org/1999/02/22-rdf-syntax-ns#"
   xmlns:svg="http://www.w3.org/2000/svg"
   xmlns="http://www.w3.org/2000/svg"
   xmlns:xlink="http://www.w3.org/1999/xlink"
   xmlns:sodipodi="http://sodipodi.sourceforge.net/DTD/sodipodi-0.dtd"
   xmlns:inkscape="http://www.inkscape.org/namespaces/inkscape"
   id="svg2"
   version="1.1"
   inkscape:version="0.92.2 2405546, 2018-03-11"
   width="2481"
   height="3503"
   sodipodi:docname="E14P04.svg">
  <metadata
     id="metadata8">
    <rdf:RDF>
      <cc:Work
         rdf:about="">
        <dc:format>image/svg+xml</dc:format>
        <dc:type
           rdf:resource="http://purl.org/dc/dcmitype/StillImage" />
        <dc:title></dc:title>
      </cc:Work>
    </rdf:RDF>
  </metadata>
  <defs
     id="defs6" />
  <sodipodi:namedview
     pagecolor="#ffffff"
     bordercolor="#666666"
     borderopacity="1"
     objecttolerance="10"
     gridtolerance="10"
     guidetolerance="10"
     inkscape:pageopacity="0"
     inkscape:pageshadow="2"
     inkscape:window-width="1920"
     inkscape:window-height="1033"
     id="namedview4"
     showgrid="false"
     inkscape:zoom="0.80000002"
     inkscape:cx="1604.309"
     inkscape:cy="2897.6438"
     inkscape:window-x="0"
     inkscape:window-y="47"
     inkscape:window-maximized="0"
     inkscape:current-layer="layer1"
     showguides="true"
     inkscape:guide-bbox="true" />
  <g
     inkscape:groupmode="layer"
     id="layer2"
     inkscape:label="artwork"
     sodipodi:insensitive="true">
    <image
       sodipodi:absref="/home/midgard/git/peppercarrot/comics/ep14_The-Dragon-s-Tooth/lang/ca/../gfx_Pepper-and-Carrot_by-David-Revoy_E14P04.png"
       xlink:href="../gfx_Pepper-and-Carrot_by-David-Revoy_E14P04.png"
       width="2481"
       height="3503"
       id="image10"
       x="0"
       y="0" />
  </g>
  <g
     inkscape:groupmode="layer"
     id="layer3"
     inkscape:label="speechbubbles">
    <path
       style="color:#000000;display:inline;overflow:visible;visibility:visible;fill:#ffffff;fill-opacity:1;fill-rule:nonzero;stroke:none;stroke-width:1px;marker:none;enable-background:accumulate"
       d="m 1624.3083,379.46095 c 10.5479,-20.326 55.0295,-17.6728 70.7719,-11.75341 -29.8179,-26.89811 -26.7953,-41.4565 18.0836,-39.27815 -69.3273,-50.03545 -9.0474,-37.4874 4.3862,-47.07518 -56.8344,-20.53598 -28.2304,-36.16477 -15.4523,-53.29185 -67.4031,-7.3692 -41.5914,-34.29072 -41.467,-57.77429 -7.1139,10.31432 -38.5335,40.73998 -35.4467,3.67491 -49.1411,30.74469 -105.8142,48.1124 -102.199,-13.92516 -21.9509,29.19715 -41.5578,40.50459 -35.4468,3.67491 -50.7129,43.62724 -88.5417,22.31788 -127.0835,4.70221 -12.4366,13.45458 -16.5223,35.62602 -50.081,26.98031 2.9584,14.86369 -9.8635,23.59611 -36.7135,26.85913 33.569,12.15538 38.8137,21.7567 -26.8152,24.96534 48.8812,5.83063 94.3299,12.30915 32.6325,39.45537 17.9337,2.5986 64.2375,-20.57052 34.0078,57.75726 34.3039,-22.61401 69.2086,-33.499 103.8116,24.51255 23.0815,-24.94651 58.8471,-34.85784 69.3644,0.23525 7.1597,-13.79701 29.934,-16.97865 48.7659,-15.75827 6.5216,6.41655 13.0098,14.89498 19.5168,25.80383 15.4752,-19.99328 36.3912,-32.44989 69.3643,0.23524 z"
       id="path3549-3-7"
       inkscape:connector-curvature="0"
       sodipodi:nodetypes="cccccccccccccccccccc" />
    <path
       style="fill:#ffffff;fill-rule:evenodd;stroke:none;stroke-width:1px;stroke-linecap:butt;stroke-linejoin:miter;stroke-opacity:1"
       d="m 1501.8827,343.71377 c -12.2042,-2.75755 -23.3436,5.52359 -33.6141,12.07893 -6.6139,3.93838 -13.7066,7.60882 -18.2462,14.87533 -4.4824,5.73841 -6.0349,15.9276 -0.2117,21.24242 4.144,2.76075 10.1393,7.97375 6.2466,14.25838 -2.2423,5.32331 -8.2927,7.01313 -9.2813,13.1085 -2.4114,8.49796 3.5935,16.17783 9.7928,19.25645 4.5943,2.03439 8.8387,2.80096 9.4505,9.29875 4.6824,9.76609 14.9916,11.34577 23.5537,12.19411 7.3501,0.44992 14.7681,1.81986 22.0432,-0.24661 8.1569,-1.707 18,-4.58685 24.7304,2.99641 11.8402,8.48643 26.1565,10.30023 39.7484,11.07215 6.8394,0.0565 13.754,0.95629 20.5503,0.12757 14.354,-2.8175 29.033,-3.75591 43.5024,-1.71264 15.0926,-0.095 26.0122,-16.69364 41.1872,-16.25915 12.4978,-3.33988 26.3826,-6.59382 35.2262,-18.5539 3.8551,-4.36517 3.5953,-11.66902 8.5207,-14.45037 3.7767,-6.16102 -1.4718,-14.45989 -6.8918,-15.99606 -5.2492,-0.32119 4.6692,-2.213 5.7354,-5.01905 5.4224,-4.59011 9.2965,-14.65891 4.1569,-21.34731 -11.5667,-12.80871 -29.1268,-13.59931 -40.7546,-26.36988 -9.6803,-5.50852 -19.9718,1.08434 -29.7891,2.33379 -4.837,-1.26427 -6.9006,-10.50793 -12.9717,-11.5648 -7.7919,-3.81615 -16.3941,-3.95541 -24.6961,-4.03777 -8.0452,6.39721 -18.2523,3.94985 -26.7475,0.29467 -7.4138,-3.10334 -15.3215,-5.53554 -23.1972,-3.50688 -5.8055,0.53179 -12.408,3.98461 -17.8478,1.19596 -7.6528,-7.44542 -18.1302,-3.72347 -27.1386,-4.54728 -6.1908,-2.01053 -11.8458,2.57428 -17.3051,5.36572 -2.1827,1.11665 -9.0049,5.89786 -1.6598,3.91252"
       id="path4220"
       inkscape:connector-curvature="0" />
    <path
       style="color:#000000;display:inline;overflow:visible;visibility:visible;fill:#ffffff;fill-opacity:1;fill-rule:nonzero;stroke:none;stroke-width:1px;marker:none;enable-background:accumulate"
       d="m 1280.8534,546.00632 c 21.2486,-41.3416 65.9441,-76.10613 124.561,-90.19986 58.617,-14.09373 167.0584,-10.33545 186.109,-5.63747 19.0504,4.69787 123.8282,21.61029 146.5422,45.09987 22.7142,23.48959 53.4881,52.61665 60.0825,82.68319 6.5945,30.06666 0.7327,102.41451 -20.5159,118.38743 -21.2487,15.97293 -117.9667,50.73746 -174.3856,52.61654 -56.4188,1.87919 -187.5742,-13.15414 -224.9425,-23.48948 -37.3683,-10.33545 -76.9348,-23.48959 -88.6581,-56.37492 -11.7235,-32.88545 -33.7048,-76.10624 -8.7926,-123.0853 z"
       id="path3533"
       inkscape:connector-curvature="0" />
    <path
       style="color:#000000;display:inline;overflow:visible;visibility:visible;fill:#ffffff;fill-opacity:1;fill-rule:nonzero;stroke:none;stroke-width:1px;marker:none;filter:url(#filter4386);enable-background:accumulate"
       d="m 1678.4528,528.49189 c 30.5923,52.37324 -103.4044,94.84893 -110.4621,125.45674 -2.3684,10.27079 -5.582,32.22619 0.4801,42.42915 10.2279,17.21496 39.4486,19.14791 -24.0871,109.8658 -15.4603,19.92013 12.0481,56.95066 47.151,66.90119 28.0513,17.10155 -7.3932,123.12378 -37.4741,172.62433 43.7979,-42.6678 77.2922,-149.02168 64.215,-140.15631 4.5835,-35.53698 -13.701,-44.07469 -23.5467,-53.21369 -9.8457,-9.13907 -29.5569,-14.98259 -28.3948,-30.06869 1.1623,-15.08705 39.8018,-58.24357 44.8599,-85.55656 5.0578,-27.31218 -22.1531,-43.05915 -16.0064,-68.06815 6.1465,-25.00909 83.9624,-57.20023 102.0984,-79.91604 20.9522,-23.39323 25.1007,-60.90229 25.1007,-60.90229 z"
       id="path3153"
       inkscape:connector-curvature="0"
       sodipodi:nodetypes="cssccccscssccc" />
    <path
       style="color:#000000;display:inline;overflow:visible;visibility:visible;fill:#ffffff;fill-opacity:1;fill-rule:nonzero;stroke:none;stroke-width:1px;marker:none;enable-background:accumulate"
       d="m 1475.5653,923.4853 c 0.7213,-47.05507 14.7719,-91.55482 139.3276,-90.01485 93.3925,1.15467 118.2634,37.40956 120.3326,84.97275 1.4583,33.51868 -49.0677,64.54426 -129.3079,62.90076 -76.6942,-1.57085 -124.7435,-21.97449 -130.3523,-57.85866 z"
       id="path5026"
       inkscape:connector-curvature="0"
       sodipodi:nodetypes="csssc" />
    <path
       style="color:#000000;display:inline;overflow:visible;visibility:visible;fill:#ffffff;fill-opacity:1;fill-rule:nonzero;stroke:none;stroke-width:1px;marker:none;enable-background:accumulate"
       d="m 217.63681,1926.9087 c 10.13168,-44.5515 31.25486,-91.0727 224.13101,-81.9927 192.87616,9.0799 235.86398,49.3421 236.32314,95.588 0.60145,60.5793 -49.78374,70.1685 -78.0741,77.4484 -28.29023,7.2798 -94.50022,15.0338 -142.10451,16.9543 -25.59581,1.0327 -180.72371,-7.0788 -209.74526,-30.4482 -28.91806,-23.2861 -33.28283,-45.4895 -30.53028,-77.5498 z"
       id="path3365"
       inkscape:connector-curvature="0"
       sodipodi:nodetypes="csssssc" />
    <path
       style="fill:#ffffff;stroke:none"
       d="m 793.89506,2205.2295 c -7.92197,92.188 -119.94485,106.446 -171.65851,109.1706 -51.71361,2.7246 -189.25231,14.6142 -235.84928,-62.4983 -46.59698,-77.1125 -26.13055,-112.4852 4.17327,-150.0623 25.84201,-32.0447 86.59652,-47.5476 139.77831,-55.1369 66.03581,-9.4235 175.67023,12.4811 221.45615,51.9185 24.41713,21.0313 50.02209,14.4205 42.10006,106.6084 z"
       id="path3100"
       inkscape:connector-curvature="0"
       sodipodi:nodetypes="zsssssz" />
    <path
       style="fill:#ffffff;fill-rule:evenodd;stroke:none;stroke-width:1px;stroke-linecap:butt;stroke-linejoin:miter;stroke-opacity:1"
       d="m 534.12829,1990.1588 c 25.7289,58.6047 40.02273,101.4862 22.87013,151.5146 -17.15259,50.0284 1.42939,104.345 -12.86445,141.509 -14.29383,37.1639 -38.54491,47.2584 -11.43506,107.2037 19.79941,43.7805 -85.08462,39.3605 -44.31895,127.2554 -63.78914,-78.8501 40.07923,-99.8873 25.7289,-127.2151 -28.88282,-55.0024 -7.13885,-80.0858 2.86684,-105.8147 10.00568,-25.7289 -6.87995,-119.2204 10.00568,-151.5146 18.13588,-34.6853 -17.29178,-107.4567 -22.87013,-131.5032 -7.17205,-30.9164 30.01704,-11.4351 30.01704,-11.4351 z"
       id="path4313"
       inkscape:connector-curvature="0"
       sodipodi:nodetypes="cssscssssc" />
  </g>
  <g
     inkscape:groupmode="layer"
     id="layer1"
     inkscape:label="txt">
    <text
       xml:space="preserve"
       style="font-style:normal;font-variant:normal;font-weight:normal;font-stretch:normal;line-height:0%;font-family:Lavi;-inkscape-font-specification:Lavi;text-align:center;letter-spacing:0px;word-spacing:0px;text-anchor:middle;fill:#000000;fill-opacity:1;stroke:none"
       x="1503.0696"
       y="283.06659"
       id="text4246"><tspan
         sodipodi:role="line"
         style="font-size:67.89629364px;line-height:1.25"
         x="1503.0696"
         y="283.06659"
         id="tspan4252">Carrot!...</tspan></text>
    <text
       xml:space="preserve"
       style="font-style:normal;font-variant:normal;font-weight:normal;font-stretch:normal;line-height:0%;font-family:Lavi;-inkscape-font-specification:Lavi;text-align:center;letter-spacing:0px;word-spacing:0px;text-anchor:middle;fill:#000000;fill-opacity:1;stroke:none"
       x="1601.632"
       y="418.67383"
       id="text4246-1"><tspan
         sodipodi:role="line"
         style="font-size:45px;line-height:1.25"
         x="1601.632"
         y="418.67383"
         id="tspan4252-8">Torna...</tspan></text>
    <text
       xml:space="preserve"
       style="font-style:normal;font-variant:normal;font-weight:normal;font-stretch:normal;line-height:0%;font-family:Lavi;-inkscape-font-specification:Lavi;text-align:center;letter-spacing:0px;word-spacing:0px;text-anchor:middle;fill:#000000;fill-opacity:1;stroke:none"
       x="1532.5493"
       y="531.84924"
       id="text4246-1-3"><tspan
         sodipodi:role="line"
         style="font-size:45px;line-height:1.25"
         x="1532.5493"
         y="531.84924"
         id="tspan4174">...els dracs dels</tspan><tspan
         sodipodi:role="line"
         style="font-size:45px;line-height:1.25"
         x="1532.5493"
         y="588.09924"
         id="tspan3021">fangars tenen fama</tspan><tspan
         sodipodi:role="line"
         style="font-size:45px;line-height:1.25"
         x="1532.5493"
         y="644.34924"
         id="tspan3023">de ser més dòcils.</tspan><tspan
         sodipodi:role="line"
         style="font-size:45px;line-height:1.25"
         x="1532.5493"
         y="700.59924"
         id="tspan3025">I això...</tspan></text>
    <text
       xml:space="preserve"
       style="font-style:normal;font-variant:normal;font-weight:normal;font-stretch:normal;line-height:0%;font-family:Lavi;-inkscape-font-specification:Lavi;text-align:center;letter-spacing:0px;word-spacing:0px;text-anchor:middle;fill:#000000;fill-opacity:1;stroke:none"
       x="1607.5629"
       y="896.56146"
       id="text4246-1-3-6"><tspan
         sodipodi:role="line"
         style="font-size:35.54689407px;line-height:1.25"
         x="1607.5629"
         y="896.56146"
         id="tspan4212">és el que jo</tspan><tspan
         sodipodi:role="line"
         style="font-size:35.54689407px;line-height:1.25"
         x="1607.5629"
         y="940.99506"
         id="tspan3029">pensava...</tspan></text>
    <text
       xml:space="preserve"
       style="font-style:normal;font-variant:normal;font-weight:normal;font-stretch:normal;line-height:0%;font-family:Lavi;-inkscape-font-specification:Lavi;text-align:center;letter-spacing:0px;word-spacing:0px;text-anchor:middle;fill:#000000;fill-opacity:1;stroke:none"
       x="447.2666"
       y="1921.0948"
       id="text4246-10"><tspan
         sodipodi:role="line"
         style="font-size:45px;line-height:1.25"
         x="447.2666"
         y="1921.0948"
         id="tspan4262">Mmm... potser</tspan><tspan
         sodipodi:role="line"
         style="font-size:45px;line-height:1.25"
         x="447.2666"
         y="1977.3448"
         id="tspan3033">aquestes tenalles...</tspan></text>
    <text
       xml:space="preserve"
       style="font-style:normal;font-variant:normal;font-weight:normal;font-stretch:normal;line-height:0%;font-family:Lavi;-inkscape-font-specification:Lavi;text-align:center;letter-spacing:0px;word-spacing:0px;text-anchor:middle;fill:#000000;fill-opacity:1;stroke:none"
       x="575.8111"
       y="2145.9912"
       id="text4246-10-5"><tspan
         sodipodi:role="line"
         style="font-size:45px;line-height:1.25"
         x="575.8111"
         y="2145.9912"
         id="tspan4289">...no estan fetes</tspan><tspan
         sodipodi:role="line"
         style="font-size:45px;line-height:1.25"
         x="575.8111"
         y="2202.2412"
         id="tspan3040">pels dracs</tspan><tspan
         sodipodi:role="line"
         style="font-size:45px;line-height:1.25"
         x="575.8111"
         y="2258.4912"
         id="tspan3042">dels llamps.</tspan></text>
  </g>
</svg>
