<?xml version="1.0" encoding="UTF-8" standalone="no"?>
<!-- Created with Inkscape (http://www.inkscape.org/) -->

<svg
   xmlns:dc="http://purl.org/dc/elements/1.1/"
   xmlns:cc="http://creativecommons.org/ns#"
   xmlns:rdf="http://www.w3.org/1999/02/22-rdf-syntax-ns#"
   xmlns:svg="http://www.w3.org/2000/svg"
   xmlns="http://www.w3.org/2000/svg"
   xmlns:xlink="http://www.w3.org/1999/xlink"
   xmlns:sodipodi="http://sodipodi.sourceforge.net/DTD/sodipodi-0.dtd"
   xmlns:inkscape="http://www.inkscape.org/namespaces/inkscape"
   id="svg2"
   version="1.1"
   inkscape:version="0.92.3 (2405546, 2018-03-11)"
   width="2481"
   height="3503"
   sodipodi:docname="E09P08.svg">
  <metadata
     id="metadata8">
    <rdf:RDF>
      <cc:Work
         rdf:about="">
        <dc:format>image/svg+xml</dc:format>
        <dc:type
           rdf:resource="http://purl.org/dc/dcmitype/StillImage" />
        <dc:title />
      </cc:Work>
    </rdf:RDF>
  </metadata>
  <defs
     id="defs6" />
  <sodipodi:namedview
     pagecolor="#ffffff"
     bordercolor="#666666"
     borderopacity="1"
     objecttolerance="10"
     gridtolerance="10"
     guidetolerance="10"
     inkscape:pageopacity="0"
     inkscape:pageshadow="2"
     inkscape:window-width="1366"
     inkscape:window-height="715"
     id="namedview4"
     showgrid="false"
     inkscape:zoom="0.2116"
     inkscape:cx="1388.9388"
     inkscape:cy="731.64081"
     inkscape:window-x="-8"
     inkscape:window-y="-8"
     inkscape:window-maximized="1"
     inkscape:current-layer="layer2"
     inkscape:object-nodes="true"
     showguides="true"
     inkscape:guide-bbox="true">
    <sodipodi:guide
       position="327.75,3395.375"
       orientation="0,1"
       id="guide4214"
       inkscape:locked="false" />
  </sodipodi:namedview>
  <g
     inkscape:groupmode="layer"
     id="layer1"
     inkscape:label="artwork"
     style="display:inline"
     transform="translate(0,1024)"
     sodipodi:insensitive="true">
    <image
       sodipodi:absref="G:\Aslan's Works &amp; Design Projects\2. Personal Projects\3. Translation Projects\1. Pepper &amp; Carrot Translation Project\Episode 9\lang\fa\../gfx_Pepper-and-Carrot_by-David-Revoy_E09P08.png"
       xlink:href="../gfx_Pepper-and-Carrot_by-David-Revoy_E09P08.png"
       width="2481.4438"
       height="3504.5391"
       preserveAspectRatio="none"
       style="image-rendering:optimizeQuality"
       id="image4223"
       x="0.54707891"
       y="-1023.3771" />
  </g>
  <g
     inkscape:groupmode="layer"
     id="layer3"
     inkscape:label="speechbubbles"
     style="display:none"
     transform="translate(0,1024)">
    <path
       style="fill:#ffffff;stroke:none"
       d="m -2021.8885,646.19917 c 1.0628,-51.0158 26.5707,-103.09442 170.0526,-112.65988 143.4819,-9.56546 203.0004,48.89014 207.2517,90.34047 4.2513,41.45033 -82.9007,96.71744 -162.6129,97.78027 -79.7121,1.06282 -214.6914,-11.69112 -214.6914,-75.46086 z"
       id="path4279"
       inkscape:connector-curvature="0" />
    <path
       style="fill:#ffffff;stroke:none"
       d="m -1788.0661,898.08964 c 70.1467,-44.63882 88.2148,-124.35099 45.7016,-190.24639 -42.5132,-65.8954 -82.9007,-54.20428 -82.9007,-54.20428 l 35.0734,41.45033 c 0,0 97.7803,97.78027 2.1257,203.00034 z"
       id="path4281"
       inkscape:connector-curvature="0"
       sodipodi:nodetypes="csccc" />
  </g>
  <g
     inkscape:groupmode="layer"
     id="layer2"
     inkscape:label="text"
     style="display:inline"
     transform="translate(0,1024)">
    <flowRoot
       xml:space="preserve"
       id="flowRoot3027-8-8-2-8-6"
       style="font-style:normal;font-variant:normal;font-weight:normal;font-stretch:normal;line-height:0.01%;font-family:Arial;-inkscape-font-specification:Arial;text-align:center;letter-spacing:0px;word-spacing:0px;text-anchor:middle;display:inline;fill:#000000;fill-opacity:1;stroke:none"
       transform="matrix(0.78840156,0,0,0.81820527,254.19922,1939.7566)"><flowRegion
         id="flowRegion3029-9-3-5-1-2"><rect
           id="rect3031-9-1-6-8-7"
           width="2230.314"
           height="376.21677"
           x="135.21135"
           y="219.33444"
           style="text-align:center;text-anchor:middle" /></flowRegion><flowPara
         id="flowPara3033-3-0-2-4-3"
         style="font-size:12px;line-height:1.25"> </flowPara><flowPara
         style="font-style:normal;font-variant:normal;font-weight:normal;font-stretch:normal;font-size:48px;line-height:1.25;font-family:Lavi;-inkscape-font-specification:Lavi;text-align:center;text-anchor:middle"
         id="flowPara3233-6-14"> </flowPara></flowRoot>    <flowRoot
       xml:space="preserve"
       id="flowRoot4307"
       style="font-style:normal;font-variant:normal;font-weight:normal;font-stretch:normal;line-height:0.01%;font-family:Fondamento;-inkscape-font-specification:Fondamento;letter-spacing:0px;word-spacing:0px;fill:#000000;fill-opacity:1;stroke:none;stroke-width:1px;stroke-linecap:butt;stroke-linejoin:miter;stroke-opacity:1"
       transform="translate(0,-1024)"><flowRegion
         id="flowRegion4309"><rect
           id="rect4311"
           width="680.59155"
           height="277.55969"
           x="-836.48126"
           y="2419.3765"
           style="font-style:normal;font-variant:normal;font-weight:normal;font-stretch:normal;font-family:Fondamento;-inkscape-font-specification:Fondamento" /></flowRegion><flowPara
         id="flowPara4313"
         style="font-size:12px;line-height:1.25"> </flowPara></flowRoot>    <flowRoot
       xml:space="preserve"
       id="flowRoot2987-7"
       style="font-style:normal;font-variant:normal;font-weight:normal;font-stretch:normal;line-height:0.01%;font-family:Arial;-inkscape-font-specification:Arial;text-align:justify;letter-spacing:0px;word-spacing:0px;text-anchor:start;display:inline;fill:#000000;fill-opacity:1;stroke:none"
       transform="matrix(0.67508769,0,0,0.69713023,349.53821,-206.38254)"><flowRegion
         id="flowRegion2989-7"><rect
           id="rect2991-7"
           width="2919.5374"
           height="2226.7908"
           x="-141.0901"
           y="266.68515"
           style="text-align:justify;text-anchor:start" /></flowRegion><flowPara
         style="font-style:normal;font-variant:normal;font-weight:normal;font-stretch:normal;font-size:72.88412476px;line-height:80.00000119%;font-family:Midan;-inkscape-font-specification:Midan;text-align:center;writing-mode:lr-tb;text-anchor:middle"
         id="flowPara4831-7"><flowSpan
   style="font-size:58.30730057px"
   id="flowSpan4271">Глеб Бузало - 无名 - 獨孤欣 &amp; 獨弧悦</flowSpan> - Adam Mathena - Addison Lewis </flowPara><flowPara
         style="font-style:normal;font-variant:normal;font-weight:normal;font-stretch:normal;font-size:72.88412476px;line-height:80.00000119%;font-family:Midan;-inkscape-font-specification:Midan;text-align:center;writing-mode:lr-tb;text-anchor:middle"
         id="flowPara4218">A Distinguished Robot - Aina Reich - Alan Hardman - Albert Westra - Alex - AlexanderKennedy</flowPara><flowPara
         style="font-style:normal;font-variant:normal;font-weight:normal;font-stretch:normal;font-size:72.88412476px;line-height:80.00000119%;font-family:Midan;-inkscape-font-specification:Midan;text-align:center;writing-mode:lr-tb;text-anchor:middle"
         id="flowPara4220">Alexander Lust - Alexander Sopicki - Alexandra Jordan - Alex Lusco - Alex Silver - Alex V - Alfredo</flowPara><flowPara
         style="font-style:normal;font-variant:normal;font-weight:normal;font-stretch:normal;font-size:72.88412476px;line-height:80.00000119%;font-family:Midan;-inkscape-font-specification:Midan;text-align:center;writing-mode:lr-tb;text-anchor:middle"
         id="flowPara4222">Alien Green - Allan Zieser - Alok Baikadi - Amic - Andreas Rieger - Andreas Ulmer - Andrej Kwadrin</flowPara><flowPara
         style="font-style:normal;font-variant:normal;font-weight:normal;font-stretch:normal;font-size:72.88412476px;line-height:80.00000119%;font-family:Midan;-inkscape-font-specification:Midan;text-align:center;writing-mode:lr-tb;text-anchor:middle"
         id="flowPara4228">Andrew Godfrey - Andrey Alekseenko - Anna Orlova - Antan Karmola - Anthony Edlin - Ardash Crowfoot</flowPara><flowPara
         style="font-style:normal;font-variant:normal;font-weight:normal;font-stretch:normal;font-size:72.88412476px;line-height:80.00000119%;font-family:Midan;-inkscape-font-specification:Midan;text-align:center;writing-mode:lr-tb;text-anchor:middle"
         id="flowPara4230">Arjun Chennu - Arnulf - Arturo J. Pérez - Austin Knowles - Axel Bordelon - Bastian Hougaard - Ben Evans</flowPara><flowPara
         style="font-style:normal;font-variant:normal;font-weight:normal;font-stretch:normal;font-size:72.88412476px;line-height:80.00000119%;font-family:Midan;-inkscape-font-specification:Midan;text-align:center;writing-mode:lr-tb;text-anchor:middle"
         id="flowPara4232">blacksheep33512 - Boonsak Watanavisit - BoxBoy - Brett Smith - Brian Behnke - Bryan Butler - BS</flowPara><flowPara
         style="font-style:normal;font-variant:normal;font-weight:normal;font-stretch:normal;font-size:72.88412476px;line-height:80.00000119%;font-family:Midan;-inkscape-font-specification:Midan;text-align:center;writing-mode:lr-tb;text-anchor:middle"
         id="flowPara4234">Bui Dang Hai Trieu - carlos levischi - carolin der keks - Cedric Wohlleber - Chance Millar - Charles</flowPara><flowPara
         style="font-style:normal;font-variant:normal;font-weight:normal;font-stretch:normal;font-size:72.88412476px;line-height:80.00000119%;font-family:Midan;-inkscape-font-specification:Midan;text-align:center;writing-mode:lr-tb;text-anchor:middle"
         id="flowPara4236">Chaz Straney - Chris - Chris Sakkas - Christian Howe - Christophe Carré - Christopher Bates</flowPara><flowPara
         style="font-style:normal;font-variant:normal;font-weight:normal;font-stretch:normal;font-size:72.88412476px;line-height:80.00000119%;font-family:Midan;-inkscape-font-specification:Midan;text-align:center;writing-mode:lr-tb;text-anchor:middle"
         id="flowPara4238">Christopher Rodriguez - Christopher Vollick - Colby Driedger - Damien - Daniel - Daniel Lynn - Danijel - David Brennan</flowPara><flowPara
         style="font-style:normal;font-variant:normal;font-weight:normal;font-stretch:normal;font-size:72.88412476px;line-height:80.00000119%;font-family:Midan;-inkscape-font-specification:Midan;text-align:center;writing-mode:lr-tb;text-anchor:middle"
         id="flowPara4240">David Kerdudo - David Tang - DecMoon - Derek Zan - Dio Fantasma - Dmitry - Doug Moen - douze12 - Drew Fisher</flowPara><flowPara
         style="font-style:normal;font-variant:normal;font-weight:normal;font-stretch:normal;font-size:72.88412476px;line-height:80.00000119%;font-family:Midan;-inkscape-font-specification:Midan;text-align:center;writing-mode:lr-tb;text-anchor:middle"
         id="flowPara4244">Durand D'souza - Elijah Brown - Elisha Condon - -epsilon- - Eric Schulz - Faolan Grady - francisco dario aviltis</flowPara><flowPara
         style="font-style:normal;font-variant:normal;font-weight:normal;font-stretch:normal;font-size:72.88412476px;line-height:80.00000119%;font-family:Midan;-inkscape-font-specification:Midan;text-align:center;writing-mode:lr-tb;text-anchor:middle"
         id="flowPara4246">Francois Schnell - Francou - Garret Patterson - Gary Thomas - Ginny Hendricks - GreenAngel5 - Grigory Petrov</flowPara><flowPara
         style="font-style:normal;font-variant:normal;font-weight:normal;font-stretch:normal;font-size:72.88412476px;line-height:80.00000119%;font-family:Midan;-inkscape-font-specification:Midan;text-align:center;writing-mode:lr-tb;text-anchor:middle"
         id="flowPara4248">Grzegorz Wozniak - G. S. Davis - Guillaume - Gustav Strömbom - happy2ice - Happy Mimic - Helmar Suschka</flowPara><flowPara
         style="font-style:normal;font-variant:normal;font-weight:normal;font-stretch:normal;font-size:72.88412476px;line-height:80.00000119%;font-family:Midan;-inkscape-font-specification:Midan;text-align:center;writing-mode:lr-tb;text-anchor:middle"
         id="flowPara4250">Henning Döscher - Henry Ståhle - HobbyThor - Ilyas - Irina Rempt - Jacob - James Frazier - Jamie Sutherland - Janusz</flowPara><flowPara
         style="font-style:normal;font-variant:normal;font-weight:normal;font-stretch:normal;font-size:72.88412476px;line-height:80.00000119%;font-family:Midan;-inkscape-font-specification:Midan;text-align:center;writing-mode:lr-tb;text-anchor:middle"
         id="flowPara4252">Jason - Jeffrey Schneider - Jessey Wright - Jessica Gadling - Joao Luiz - John - John Gholson - John Urquhart Ferguson</flowPara><flowPara
         style="font-style:normal;font-variant:normal;font-weight:normal;font-stretch:normal;font-size:72.88412476px;line-height:80.00000119%;font-family:Midan;-inkscape-font-specification:Midan;text-align:center;writing-mode:lr-tb;text-anchor:middle"
         id="flowPara4254">Jonas Peter - Jonathan Leroy - Jonathan Walsh - Justus Kat - Kailyce - Kai-Ting (Danil) Ko - Kari Lehto - Kathryn Wuerstl </flowPara><flowPara
         style="font-style:normal;font-variant:normal;font-weight:normal;font-stretch:normal;font-size:72.88412476px;line-height:80.00000119%;font-family:Midan;-inkscape-font-specification:Midan;text-align:center;writing-mode:lr-tb;text-anchor:middle"
         id="flowPara4256">kazakirinyancat - Ken Mingyuan Xia - Kevin Estalella - Kevin Trévien - Kingsquee - Kurain - La Plume - Lenod - Liang - Lise-Lotte Pesonen - Lloyd Ash Pyne - Lorentz Grip - Lorenzo Leonini - Magnus Kronnäs - Marc et Rick - Marco - marcus</flowPara><flowPara
         style="font-style:normal;font-variant:normal;font-weight:normal;font-stretch:normal;font-size:72.88412476px;line-height:80.00000119%;font-family:Midan;-inkscape-font-specification:Midan;text-align:center;writing-mode:lr-tb;text-anchor:middle"
         id="flowPara4258">Matt Lichtenwalner - Michael F. Schönitzer - Michael Gill - Michael Polushkin - Mike Mosher - Mohamed El Banna - Nabispace</flowPara><flowPara
         style="font-style:normal;font-variant:normal;font-weight:normal;font-stretch:normal;font-size:72.88412476px;line-height:80.00000119%;font-family:Midan;-inkscape-font-specification:Midan;text-align:center;writing-mode:lr-tb;text-anchor:middle"
         id="flowPara4260"> Nazhif - Nicholas DeLateur - Nicola Angel - Oleg Schelykalnov - Olga Bikmullina - Olivier Amrein - Olivier Gavrois - Omar Willey </flowPara><flowPara
         style="font-style:normal;font-variant:normal;font-weight:normal;font-stretch:normal;font-size:72.88412476px;line-height:80.00000119%;font-family:Midan;-inkscape-font-specification:Midan;text-align:center;writing-mode:lr-tb;text-anchor:middle"
         id="flowPara4262">Oscar Moreno - Pato Acevedo - Patrick Dezothez - Patrick Gamblin - Paul - Pavel Semenov - Peter Moonen - Petr Vlašic</flowPara><flowPara
         style="font-style:normal;font-variant:normal;font-weight:normal;font-stretch:normal;font-size:72.88412476px;line-height:80.00000119%;font-family:Midan;-inkscape-font-specification:Midan;text-align:center;writing-mode:lr-tb;text-anchor:middle"
         id="flowPara4264"> Pierre Vuillemin - Pranab Shenoy - Pummie - Raghavendra Kamath - Rajul Gupta - Ramel Hill - Ray Brown - Rebecca Morris</flowPara><flowPara
         style="font-style:normal;font-variant:normal;font-weight:normal;font-stretch:normal;font-size:72.88412476px;line-height:80.00000119%;font-family:Midan;-inkscape-font-specification:Midan;text-align:center;writing-mode:lr-tb;text-anchor:middle"
         id="flowPara4266"> ResidentEvilArtist - Reuben Tracey - Roberto Zaghis - Roman - Rumiko Hoshino - Rustin Simons - Ryan - Sally Bridgewater</flowPara><flowPara
         style="font-style:normal;font-variant:normal;font-weight:normal;font-stretch:normal;font-size:72.88412476px;line-height:80.00000119%;font-family:Midan;-inkscape-font-specification:Midan;text-align:center;writing-mode:lr-tb;text-anchor:middle"
         id="flowPara4268"> Sami T - Samuel Mitson - Scott Petrovic - Scott Smiesko - ShadowMist - shafak - Shawn Meyer - Soriac - Stanislav</flowPara><flowPara
         style="font-style:normal;font-variant:normal;font-weight:normal;font-stretch:normal;font-size:72.88412476px;line-height:80.00000119%;font-family:Midan;-inkscape-font-specification:Midan;text-align:center;writing-mode:lr-tb;text-anchor:middle"
         id="flowPara4270">Stephan Theelke - Stephen Bates - Steven Bennett - Stuart Dickson - surt - Takao Yamada - TamaskanLEM - tar8156</flowPara><flowPara
         style="font-style:normal;font-variant:normal;font-weight:normal;font-stretch:normal;font-size:72.88412476px;line-height:80.00000119%;font-family:Midan;-inkscape-font-specification:Midan;text-align:center;writing-mode:lr-tb;text-anchor:middle"
         id="flowPara4272">TheFaico - thibhul - Thomas Schwery - T.H. Porter - Tim Burbank - Tim J. - Tom Savage - Travis Humble - Tristy</flowPara><flowPara
         style="font-style:normal;font-variant:normal;font-weight:normal;font-stretch:normal;font-size:72.88412476px;line-height:80.00000119%;font-family:Midan;-inkscape-font-specification:Midan;text-align:center;writing-mode:lr-tb;text-anchor:middle"
         id="flowPara4274">Tyson Tan - Venus - Vera Vukovic - Victoria - Victoria White - WakoTabacco - Wei-Ching Shyu - Westen Curry</flowPara><flowPara
         style="font-style:normal;font-variant:normal;font-weight:normal;font-stretch:normal;font-size:72.88412476px;line-height:80.00000119%;font-family:Midan;-inkscape-font-specification:Midan;text-align:center;writing-mode:lr-tb;text-anchor:middle"
         id="flowPara4276">Xavier Claude - Yalyn Vinkindo - Yaroslav - Yasmin - Zeni Pong</flowPara><flowPara
         style="font-style:normal;font-variant:normal;font-weight:normal;font-stretch:normal;font-size:72.88412476px;line-height:80.00000119%;font-family:Midan;-inkscape-font-specification:Midan;text-align:justify;writing-mode:lr-tb;text-anchor:start"
         id="flowPara3113-6"> </flowPara></flowRoot>    <flowRoot
       xml:space="preserve"
       id="flowRoot2987-7-8"
       style="font-style:normal;font-variant:normal;font-weight:normal;font-stretch:normal;line-height:0.01%;font-family:Arial;-inkscape-font-specification:Arial;text-align:justify;letter-spacing:0px;word-spacing:0px;text-anchor:start;display:inline;fill:#000000;fill-opacity:1;stroke:none"
       transform="matrix(0.7498186,0,0,0.77430121,271.90193,971.70462)"><flowRegion
         id="flowRegion2989-7-8"><rect
           id="rect2991-7-5"
           width="2864.9448"
           height="1187.6599"
           x="-141.0901"
           y="266.68515"
           style="text-align:justify;text-anchor:start" /></flowRegion><flowPara
         style="font-style:normal;font-variant:normal;font-weight:normal;font-stretch:normal;font-size:65.62010956px;line-height:80.00000119%;font-family:Midan;-inkscape-font-specification:Midan;text-align:center;writing-mode:lr-tb;text-anchor:middle"
         id="flowPara3113-6-0">Adrian Lord - Ahmad Ali - al - Alandran - Alcide - Alexander Bülow Tomassen - Alexander Kashev - Alex Bradaric - Alex Cochrane - Alexey Golubev </flowPara><flowPara
         style="font-style:normal;font-variant:normal;font-weight:normal;font-stretch:normal;font-size:65.62010956px;line-height:80.00000119%;font-family:Midan;-inkscape-font-specification:Midan;text-align:center;writing-mode:lr-tb;text-anchor:middle"
         id="flowPara4280">Ali Poulton (Aunty Pol) - Amy - Andrew - Andy Gelme - Angelica Beltran - anonymous - Antoine - Antonio Mendoza - Antonio Parisi</flowPara><flowPara
         style="font-style:normal;font-variant:normal;font-weight:normal;font-stretch:normal;font-size:65.62010956px;line-height:80.00000119%;font-family:Midan;-inkscape-font-specification:Midan;text-align:center;writing-mode:lr-tb;text-anchor:middle"
         id="flowPara4282">Axel Philipsenburg - barbix - BataMoth - Bela Bargel - Bernd - Bernhard Saumweber - Betsy Luntao - Birger Tuer Thorvaldsen - blueswag</flowPara><flowPara
         style="font-style:normal;font-variant:normal;font-weight:normal;font-stretch:normal;font-size:65.62010956px;line-height:80.00000119%;font-family:Midan;-inkscape-font-specification:Midan;text-align:center;writing-mode:lr-tb;text-anchor:middle"
         id="flowPara4284">Boris Fauret - Brett - Bryan Rosander - BXS - Chris Kastorff - Chris Radcliff - Christian Gruenwaldner - Clara Dexter - codl</flowPara><flowPara
         style="font-style:normal;font-variant:normal;font-weight:normal;font-stretch:normal;font-size:65.62010956px;line-height:80.00000119%;font-family:Midan;-inkscape-font-specification:Midan;text-align:center;writing-mode:lr-tb;text-anchor:middle"
         id="flowPara4288">Comics by Shoonyah Studio - Conway Scott Smith - Coppin Olivier - Craig Bogun - Crystal Bollinger - Cuthbert Williams - Cyol </flowPara><flowPara
         style="font-style:normal;font-variant:normal;font-weight:normal;font-stretch:normal;font-size:65.62010956px;line-height:80.00000119%;font-family:Midan;-inkscape-font-specification:Midan;text-align:center;writing-mode:lr-tb;text-anchor:middle"
         id="flowPara4290">Cyrille Largillier - Cyril Paciullo - Daniel Björkman - Dan Norder - Dan Stolyarov - David - Davi Na - Dawn Blair - Deanna - Denis Bolkovskis</flowPara><flowPara
         style="font-style:normal;font-variant:normal;font-weight:normal;font-stretch:normal;font-size:65.62010956px;line-height:80.00000119%;font-family:Midan;-inkscape-font-specification:Midan;text-align:center;writing-mode:lr-tb;text-anchor:middle"
         id="flowPara4292">Dezponia Veil - DiCola Jamn - Dmitriy Yakimov - Donald Hayward - Douglas Oliveira Pessoa - Duke - Eitan Goldshtrom - Emery Schulz</flowPara><flowPara
         style="font-style:normal;font-variant:normal;font-weight:normal;font-stretch:normal;font-size:65.62010956px;line-height:80.00000119%;font-family:Midan;-inkscape-font-specification:Midan;text-align:center;writing-mode:lr-tb;text-anchor:middle"
         id="flowPara4294">Enrico Billich - Erik Moeller - Esteban Manchado Velázquez - Fen Yun Fat - Fernando Nunes - ida nilsen - Igor - Ivan Korotkov - Jamie Hunter</flowPara><flowPara
         style="font-style:normal;font-variant:normal;font-weight:normal;font-stretch:normal;font-size:65.62010956px;line-height:80.00000119%;font-family:Midan;-inkscape-font-specification:Midan;text-align:center;writing-mode:lr-tb;text-anchor:middle"
         id="flowPara4296"> Jason Baldus - Jazyl Homavazir - JDB - Jean-Baptiste Hebbrecht - Jean-Gabriel LOQUET - Jhonny Rosa - Jim - Jim Street - Joerg Raidt </flowPara><flowPara
         style="font-style:normal;font-variant:normal;font-weight:normal;font-stretch:normal;font-size:65.62010956px;line-height:80.00000119%;font-family:Midan;-inkscape-font-specification:Midan;text-align:center;writing-mode:lr-tb;text-anchor:middle"
         id="flowPara4298">Joern Konopka - joe rutledge - John - Jon Brake - Jorge Bernal - Joseph Bowman - Josh - Josh Cavalier - Juju Mendivil - Julian Dauner</flowPara><flowPara
         style="font-style:normal;font-variant:normal;font-weight:normal;font-stretch:normal;font-size:65.62010956px;line-height:80.00000119%;font-family:Midan;-inkscape-font-specification:Midan;text-align:center;writing-mode:lr-tb;text-anchor:middle"
         id="flowPara4300">Julia Velkova - Kate - Kroet - Lars Ivar Igesund - Liselle - Liska Myers - Louis Yung - Luc Stepniewski - Luke Hochrein - Mahwiii - Mancy S</flowPara><flowPara
         style="font-style:normal;font-variant:normal;font-weight:normal;font-stretch:normal;font-size:65.62010956px;line-height:80.00000119%;font-family:Midan;-inkscape-font-specification:Midan;text-align:center;writing-mode:lr-tb;text-anchor:middle"
         id="flowPara4302">Manu Järvinen - Martin Owens - Mary Brownlee - Masked Admirer - Megan Sandiford - Michael - Michael Pureka - Michelle Pereira Garcia - Miroslav - mjkj - Moonsia - Moritz Fuchs - Muriah Summer - Mylène Cassen - Nicholas Terranova - Nicole Heersema - Nielas Sinclair</flowPara><flowPara
         style="font-style:normal;font-variant:normal;font-weight:normal;font-stretch:normal;font-size:65.62010956px;line-height:80.00000119%;font-family:Midan;-inkscape-font-specification:Midan;text-align:center;writing-mode:lr-tb;text-anchor:middle"
         id="flowPara4304">Nikita Stafeev - Noble Hays - Noelia Calles Marcos - Nora Czaykowski - No Reward - Nyx - Öykü Su Gürler - Ozone S. - Pat David</flowPara><flowPara
         style="font-style:normal;font-variant:normal;font-weight:normal;font-stretch:normal;font-size:65.62010956px;line-height:80.00000119%;font-family:Midan;-inkscape-font-specification:Midan;text-align:center;writing-mode:lr-tb;text-anchor:middle"
         id="flowPara4306">Patrick Kennedy - Paul - Pet0r - Peter - Peter - Pierre Geier - Pyves &amp; Ran - Ray Cruz - Raymond Fullon - Ray Powell - Rebecca</flowPara><flowPara
         style="font-style:normal;font-variant:normal;font-weight:normal;font-stretch:normal;font-size:65.62010956px;line-height:80.00000119%;font-family:Midan;-inkscape-font-specification:Midan;text-align:center;writing-mode:lr-tb;text-anchor:middle"
         id="flowPara4308">Rebekah Hopper - Rei - Reorx Meng - Ret Samys - rictic - Robin Moussu - Sean Adams - Sebastien - Sevag Bakalian - Shadefalcon</flowPara><flowPara
         style="font-style:normal;font-variant:normal;font-weight:normal;font-stretch:normal;font-size:65.62010956px;line-height:80.00000119%;font-family:Midan;-inkscape-font-specification:Midan;text-align:center;writing-mode:lr-tb;text-anchor:middle"
         id="flowPara4310">Simon Isenberg - Simon Moffitt - Siora - Sonja Reimann-Klieber - Sonny W. - Stanislav German-Evtushenko - Stephen Smoogen - Surabhi Gaur</flowPara><flowPara
         style="font-style:normal;font-variant:normal;font-weight:normal;font-stretch:normal;font-size:65.62010956px;line-height:80.00000119%;font-family:Midan;-inkscape-font-specification:Midan;text-align:center;writing-mode:lr-tb;text-anchor:middle"
         id="flowPara4312">Taedirk - Tas Kartas - Terry Hancock (Personal) - Thomas Citharel - Thomas Werner - Thor Galle - Thornae - Timothy Boersma - Tomas Hajek</flowPara><flowPara
         style="font-style:normal;font-variant:normal;font-weight:normal;font-stretch:normal;font-size:65.62010956px;line-height:80.00000119%;font-family:Midan;-inkscape-font-specification:Midan;text-align:center;writing-mode:lr-tb;text-anchor:middle"
         id="flowPara4314">Tomáš Slapnička - Tom Dickson - tree - uglyheroes - Umbra Draconis - Vitaly Tokarenko - Vladislav Kurdyukov - Wander - Wilhelmine Faust</flowPara><flowPara
         style="font-style:normal;font-variant:normal;font-weight:normal;font-stretch:normal;font-size:65.62010956px;line-height:80.00000119%;font-family:Midan;-inkscape-font-specification:Midan;text-align:center;writing-mode:lr-tb;text-anchor:middle"
         id="flowPara4316">William Crumpler - Źmicier Kušnaroŭ - zubr kabbi</flowPara></flowRoot>    <flowRoot
       xml:space="preserve"
       id="flowRoot2987-7-7"
       style="font-style:normal;font-variant:normal;font-weight:normal;font-stretch:normal;line-height:0.01%;font-family:Arial;-inkscape-font-specification:Arial;text-align:justify;letter-spacing:0px;word-spacing:0px;text-anchor:start;display:inline;fill:#000000;fill-opacity:1;stroke:none"
       transform="matrix(0.61417137,0,0,0.63422492,391.17953,-563.08907)"><flowRegion
         id="flowRegion2989-7-9"><rect
           id="rect2991-7-2"
           width="2337.3188"
           height="782.98157"
           x="212.57574"
           y="208.72644"
           style="text-align:justify;text-anchor:start"
           ry="0" /></flowRegion><flowPara
         style="font-style:normal;font-variant:normal;font-weight:normal;font-stretch:normal;font-size:96.13572693px;line-height:89.99999762%;font-family:Midan;-inkscape-font-specification:Midan;text-align:center;writing-mode:lr-tb;text-anchor:middle"
         id="flowPara3113-6-7">Arne Brix - Boudewijn Rempt - Brent Houghton - Casey Tatum</flowPara><flowPara
         style="font-style:normal;font-variant:normal;font-weight:normal;font-stretch:normal;font-size:96.13572693px;line-height:89.99999762%;font-family:Midan;-inkscape-font-specification:Midan;text-align:center;writing-mode:lr-tb;text-anchor:middle"
         id="flowPara4198">Davis Aites - Ejner Fergo - Enrique Lopez- Francois Didier</flowPara><flowPara
         style="font-style:normal;font-variant:normal;font-weight:normal;font-stretch:normal;font-size:96.13572693px;line-height:89.99999762%;font-family:Midan;-inkscape-font-specification:Midan;text-align:center;writing-mode:lr-tb;text-anchor:middle"
         id="flowPara4200">freecultureftw - Jonathan Ringstad - Julio Avila- Levi Kornelsen</flowPara><flowPara
         style="font-style:normal;font-variant:normal;font-weight:normal;font-stretch:normal;font-size:96.13572693px;line-height:89.99999762%;font-family:Midan;-inkscape-font-specification:Midan;text-align:center;writing-mode:lr-tb;text-anchor:middle"
         id="flowPara4202">Matthew Reynolds- Mefflin Ross Bullis-bates - Michael Oliveira </flowPara><flowPara
         style="font-style:normal;font-variant:normal;font-weight:normal;font-stretch:normal;font-size:96.13572693px;line-height:89.99999762%;font-family:Midan;-inkscape-font-specification:Midan;text-align:center;writing-mode:lr-tb;text-anchor:middle"
         id="flowPara4204">Nguyen Minh Trung- Nicki Aya - NinjaKnight Comics - Olivier Brun</flowPara><flowPara
         style="font-style:normal;font-variant:normal;font-weight:normal;font-stretch:normal;font-size:96.13572693px;line-height:89.99999762%;font-family:Midan;-inkscape-font-specification:Midan;text-align:center;writing-mode:lr-tb;text-anchor:middle"
         id="flowPara4206"> Praveen Bhamidipati - Ricardo Muggli- RJ van der Weide</flowPara><flowPara
         style="font-style:normal;font-variant:normal;font-weight:normal;font-stretch:normal;font-size:96.13572693px;line-height:89.99999762%;font-family:Midan;-inkscape-font-specification:Midan;text-align:center;writing-mode:lr-tb;text-anchor:middle"
         id="flowPara4208"> Roman Burdun - Urm</flowPara></flowRoot>    <flowRoot
       xml:space="preserve"
       id="flowRoot2987-7-7-3"
       style="font-style:normal;font-variant:normal;font-weight:normal;font-stretch:normal;line-height:0.01%;font-family:Arial;-inkscape-font-specification:Arial;text-align:justify;letter-spacing:0px;word-spacing:0px;text-anchor:start;display:inline;fill:#000000;fill-opacity:1;stroke:none"
       transform="matrix(0.72857232,0,0,0.75236127,582.35247,-845.75773)"><flowRegion
         id="flowRegion2989-7-9-5"><rect
           id="rect2991-7-2-5"
           width="2084.9294"
           height="180.51283"
           x="-141.0901"
           y="266.68515"
           style="text-align:justify;text-anchor:start" /></flowRegion><flowPara
         style="font-style:normal;font-variant:normal;font-weight:normal;font-stretch:normal;font-size:94.54715729px;line-height:100%;font-family:Midan;-inkscape-font-specification:Midan;text-align:center;writing-mode:lr-tb;text-anchor:middle"
         id="flowPara4464">Jónatan Nilsson </flowPara><flowPara
         style="font-style:normal;font-variant:normal;font-weight:normal;font-stretch:normal;font-size:94.54715729px;line-height:100%;font-family:Midan;-inkscape-font-specification:Midan;text-align:center;writing-mode:lr-tb;text-anchor:middle"
         id="flowPara4196">Alex Kotenko - Philippe Jean Edward Bateman</flowPara></flowRoot>    <flowRoot
       xml:space="preserve"
       id="flowRoot3027-1"
       style="font-style:normal;font-variant:normal;font-weight:normal;font-stretch:normal;line-height:0.01%;font-family:Arial;-inkscape-font-specification:Arial;text-align:center;letter-spacing:0px;word-spacing:0px;text-anchor:middle;display:inline;fill:#000000;fill-opacity:1;stroke:none"
       transform="matrix(1.2334095,0,0,1.2851851,-452.97983,-1127.2792)"><flowRegion
         id="flowRegion3029-1"><rect
           id="rect3031-2"
           width="2475.8752"
           height="241.27675"
           x="135.21135"
           y="219.33444"
           style="text-align:center;text-anchor:middle" /></flowRegion><flowPara
         id="flowPara3033-5"
         style="font-size:12px;line-height:1.25;direction:rtl"> </flowPara><flowPara
         style="font-style:normal;font-variant:normal;font-weight:normal;font-stretch:normal;font-size:63.54092026px;line-height:100%;font-family:Midan;-inkscape-font-specification:Midan;text-align:center;direction:rtl;text-anchor:middle"
         id="flowPara4198-5">فلفل و هویج کاملا رایگان و به صورت متن باز می باشد.</flowPara><flowPara
         style="font-style:normal;font-variant:normal;font-weight:normal;font-stretch:normal;font-size:63.54092026px;line-height:100%;font-family:Midan;-inkscape-font-specification:Midan;text-align:center;direction:rtl;text-anchor:middle"
         id="flowPara4255"> این قسمت از کمیک با حمایت 406 حامی تهیه شدہ است:</flowPara></flowRoot>    <flowRoot
       xml:space="preserve"
       id="flowRoot4259"
       style="font-style:normal;font-variant:normal;font-weight:normal;font-stretch:normal;line-height:0.01%;font-family:Midan;-inkscape-font-specification:'Midan, Normal';text-align:center;letter-spacing:0px;word-spacing:0px;writing-mode:lr-tb;text-anchor:middle;fill:#000000;fill-opacity:1;stroke:none;stroke-width:1px;stroke-linecap:butt;stroke-linejoin:miter;stroke-opacity:1"><flowRegion
         id="flowRegion4261"><rect
           id="rect4263"
           width="210.52802"
           height="147.03543"
           x="681.70978"
           y="1066.8901" /></flowRegion><flowPara
         id="flowPara4265"
         style="font-size:14.87125015px;line-height:1.25"> </flowPara></flowRoot>    <flowRoot
       xml:space="preserve"
       id="flowRoot3027-8-8-2"
       style="font-style:normal;font-variant:normal;font-weight:normal;font-stretch:normal;line-height:0.01%;font-family:Arial;-inkscape-font-specification:Arial;text-align:center;letter-spacing:0px;word-spacing:0px;text-anchor:middle;display:inline;fill:#000000;fill-opacity:1;stroke:none"
       transform="matrix(0.91226779,0,0,0.94129239,98.493032,1788.3179)"><flowRegion
         id="flowRegion3029-9-3-5"><rect
           id="rect3031-9-1-6"
           width="2230.314"
           height="376.21677"
           x="135.21135"
           y="219.33444"
           style="text-align:center;text-anchor:middle" /></flowRegion><flowPara
         style="font-style:normal;font-variant:normal;font-weight:normal;font-stretch:normal;font-size:75.53958893px;line-height:1.25;font-family:Midan;-inkscape-font-specification:Midan;text-align:center;direction:rtl;text-anchor:middle"
         id="flowPara4735">شما هم میتونید حامی قسمت بعدی فلفل و هویج باشین!</flowPara></flowRoot>    <flowRoot
       xml:space="preserve"
       id="flowRoot3027-8-8"
       style="font-style:normal;font-variant:normal;font-weight:normal;font-stretch:normal;line-height:0.01%;font-family:Arial;-inkscape-font-specification:Arial;text-align:center;letter-spacing:0px;word-spacing:0px;text-anchor:middle;display:inline;fill:#a72f14;fill-opacity:1;stroke:none"
       transform="matrix(1.2234224,0,0,1.2506407,-290.41935,1765.4934)"><flowRegion
         id="flowRegion3029-9-3"><rect
           id="rect3031-9-1"
           width="2230.314"
           height="376.21677"
           x="135.21135"
           y="219.33444"
           style="text-align:center;text-anchor:middle;fill:#a72f14;fill-opacity:1" /></flowRegion><flowPara
         id="flowPara3033-3-0"
         style="font-size:12px;line-height:1.25"> </flowPara><flowPara
         style="font-style:normal;font-variant:normal;font-weight:normal;font-stretch:normal;font-size:72.75921631px;line-height:1.25;font-family:Midan;-inkscape-font-specification:Midan;text-align:center;text-anchor:middle;fill:#a72f14;fill-opacity:1"
         id="flowPara3067-4">https://www.patreon.com/davidrevoy</flowPara></flowRoot>    <flowRoot
       xml:space="preserve"
       id="flowRoot3027-8-8-2-8-6-3"
       style="font-style:normal;font-variant:normal;font-weight:normal;font-stretch:normal;line-height:0.01%;font-family:Arial;-inkscape-font-specification:Arial;text-align:center;letter-spacing:0px;word-spacing:0px;text-anchor:middle;display:inline;fill:#000000;fill-opacity:1;stroke:none"
       transform="matrix(0.78840156,0,0,0.77665473,236.1473,1967.0249)"><flowRegion
         id="flowRegion3029-9-3-5-1-2-8"><rect
           id="rect3031-9-1-6-8-7-4"
           width="2230.314"
           height="376.21677"
           x="135.21135"
           y="219.33444"
           style="text-align:center;text-anchor:middle" /></flowRegion><flowPara
         id="flowPara3033-3-0-2-4-3-2"
         style="font-size:12px;line-height:1.25;direction:rtl"> </flowPara><flowPara
         style="font-style:normal;font-variant:normal;font-weight:normal;font-stretch:normal;font-size:76.67671967px;line-height:100%;font-family:Midan;-inkscape-font-specification:Midan;text-align:center;direction:rtl;text-anchor:middle"
         id="flowPara3318">مجوز: 4.0 Creative Commons با ارجاع دادن به David Revoy</flowPara><flowPara
         style="font-style:normal;font-variant:normal;font-weight:normal;font-stretch:normal;font-size:76.67671967px;line-height:100%;font-family:Midan;-inkscape-font-specification:Midan;text-align:center;direction:rtl;text-anchor:middle"
         id="flowPara4220-7"> </flowPara><flowPara
         style="font-style:normal;font-variant:normal;font-weight:normal;font-stretch:normal;font-size:76.67671967px;line-height:1.25;font-family:Lavi;-inkscape-font-specification:Lavi;text-align:center;direction:rtl;text-anchor:middle"
         id="flowPara3233-6-14-6"> </flowPara></flowRoot>    <flowRoot
       xml:space="preserve"
       id="flowRoot3027-8-8-2-8-6-0"
       style="font-style:normal;font-variant:normal;font-weight:normal;font-stretch:normal;line-height:0.01%;font-family:Arial;-inkscape-font-specification:Arial;text-align:center;letter-spacing:0px;word-spacing:0px;text-anchor:middle;display:inline;fill:#000000;fill-opacity:1;stroke:none"
       transform="matrix(0.78840156,0,0,0.75010368,195.5781,2030.9989)"><flowRegion
         id="flowRegion3029-9-3-5-1-2-3"><rect
           id="rect3031-9-1-6-8-7-7"
           width="2230.314"
           height="376.21677"
           x="135.21135"
           y="219.33444"
           style="text-align:center;text-anchor:middle" /></flowRegion><flowPara
         id="flowPara3033-3-0-2-4-3-5"
         style="font-size:12px;line-height:1.25;direction:rtl"> </flowPara><flowPara
         style="font-style:normal;font-variant:normal;font-weight:normal;font-stretch:normal;font-size:78.02196503px;line-height:100%;font-family:Midan;-inkscape-font-specification:Midan;text-align:center;text-anchor:middle;direction:rtl"
         id="flowPara3278">متن باز: فایل های اصلی لایه باز با کیفیت بالا برای پرینت و همچنین فونت ها برای دانلود در دسترس هستن.</flowPara><flowPara
         style="font-style:normal;font-variant:normal;font-weight:normal;font-stretch:normal;font-size:78.02196503px;line-height:1.25;font-family:Lavi;-inkscape-font-specification:Lavi;text-align:center;text-anchor:middle;direction:rtl"
         id="flowPara3233-6-14-7"> </flowPara></flowRoot>    <flowRoot
       xml:space="preserve"
       id="flowRoot3027-8-8-2-8"
       style="font-style:normal;font-variant:normal;font-weight:normal;font-stretch:normal;line-height:0.01%;font-family:Arial;-inkscape-font-specification:Arial;text-align:center;letter-spacing:0px;word-spacing:0px;text-anchor:middle;display:inline;fill:#000000;fill-opacity:1;stroke:none"
       transform="matrix(0.78840156,0,0,0.74225951,270.51636,2098.1681)"><flowRegion
         id="flowRegion3029-9-3-5-1"><rect
           id="rect3031-9-1-6-8"
           width="2230.314"
           height="376.21677"
           x="135.21135"
           y="219.33444"
           style="text-align:center;text-anchor:middle" /></flowRegion><flowPara
         style="font-style:normal;font-variant:normal;font-weight:normal;font-stretch:normal;font-size:78.43314362px;line-height:100%;font-family:Midan;-inkscape-font-specification:Midan;text-align:center;direction:rtl;text-anchor:middle"
         id="flowPara3279">ابزار: این قسمت با استفادہ از ابزارهای طراحی کاملا رایگان و متن باز مانند Krita, Gmic, Blender, </flowPara><flowPara
         style="font-style:normal;font-variant:normal;font-weight:normal;font-stretch:normal;font-size:78.43314362px;line-height:100%;font-family:Midan;-inkscape-font-specification:Midan;text-align:center;direction:rtl;text-anchor:middle"
         id="flowPara4230-2">GIMP on Ubunto Gnu / Linux تهیه شدہ است. </flowPara><flowPara
         style="font-style:normal;font-variant:normal;font-weight:normal;font-stretch:normal;font-size:78.43314362px;line-height:100%;font-family:Midan;-inkscape-font-specification:Midan;text-align:center;direction:rtl;text-anchor:middle"
         id="flowPara4228-4"> </flowPara><flowPara
         style="font-style:normal;font-variant:normal;font-weight:normal;font-stretch:normal;font-size:78.43314362px;line-height:1.25;font-family:Lavi;-inkscape-font-specification:Lavi;text-align:center;direction:rtl;text-anchor:middle"
         id="flowPara3233-6"> </flowPara></flowRoot>  </g>
</svg>
